<?xml version="1.0" encoding="UTF-8"?>
<!-- This file was generated from the DelayGraph object. -->
<graphml xmlns="http://graphml.graphdrawing.org/xmlns"
            xmlns:xsi="http://www.w3.org/2001/XMLSchema-instance"
            xsi:schemaLocation="http://graphml.graphdrawing.org/xmlns
                                http://graphml.graphdrawing.org/xmlns/1.0/graphml.xsd">
  <key id="VertexId" for="node" attr.name="VertexId" attr.type="int"/>
  <key id="NodeUniqueId" for="node" attr.name="NodeUniqueId" attr.type="int"/>
  <key id="ThroughputCostIfRegistered" for="node" attr.name="ThroughputCostIfRegistered" attr.type="long"/>
  <key id="LatencyCostIfRegistered" for="node" attr.name="LatencyCostIfRegistered" attr.type="long"/>
  <key id="RegisterCostIfRegistered" for="node" attr.name="RegisterCostIfRegistered" attr.type="long"/>
  <key id="IsRegistered" for="node" attr.name="IsRegistered" attr.type="boolean"/>
  <key id="IsInputTerminal" for="node" attr.name="IsInputTerminal" attr.type="boolean"/>
  <key id="IsOutputTerminal" for="node" attr.name="IsOutputTerminal" attr.type="boolean"/>
  <key id="DisallowRegister" for="node" attr.name="DisallowRegister" attr.type="boolean"/>
  <key id="NodeType" for="node" attr.name="NodeType" attr.type="int"/>
  <key id="Delay" for="edge" attr.name="Delay" attr.type="int"/>
  <key id="IsFeedback" for="edge" attr.name="IsFeedback" attr.type="boolean"/>
  <graph id="G" edgedefault="directed"
          parse.nodes="20" parse.edges="21"
          parse.nodeids="canonical" parse.edgeids="canonical"
          parse.order="nodesfirst">
    <node id="n0" parse.indegree="0" parse.outdegree="1">
      <data key="VertexId">0</data>
      <data key="NodeUniqueId">5</data>
      <data key="ThroughputCostIfRegistered">0</data>
      <data key="LatencyCostIfRegistered">0</data>
      <data key="RegisterCostIfRegistered">0</data>
      <data key="IsRegistered">True</data>
      <data key="IsInputTerminal">False</data>
      <data key="IsOutputTerminal">False</data>
      <data key="DisallowRegister">False</data>
      <data key="NodeType">4</data>
    </node>
    <node id="n1" parse.indegree="1" parse.outdegree="3">
      <data key="VertexId">1</data>
      <data key="NodeUniqueId">5</data>
      <data key="ThroughputCostIfRegistered">0</data>
      <data key="LatencyCostIfRegistered">1</data>
      <data key="RegisterCostIfRegistered">32</data>
      <data key="IsRegistered">False</data>
      <data key="IsInputTerminal">False</data>
      <data key="IsOutputTerminal">False</data>
      <data key="DisallowRegister">True</data>
      <data key="NodeType">4</data>
    </node>
    <node id="n2" parse.indegree="0" parse.outdegree="1">
      <data key="VertexId">2</data>
      <data key="NodeUniqueId">27</data>
      <data key="ThroughputCostIfRegistered">0</data>
      <data key="LatencyCostIfRegistered">1</data>
      <data key="RegisterCostIfRegistered">2</data>
      <data key="IsRegistered">False</data>
      <data key="IsInputTerminal">False</data>
      <data key="IsOutputTerminal">False</data>
      <data key="DisallowRegister">False</data>
      <data key="NodeType">4</data>
    </node>
    <node id="n3" parse.indegree="0" parse.outdegree="1">
      <data key="VertexId">3</data>
      <data key="NodeUniqueId">29</data>
      <data key="ThroughputCostIfRegistered">0</data>
      <data key="LatencyCostIfRegistered">1</data>
      <data key="RegisterCostIfRegistered">5</data>
      <data key="IsRegistered">False</data>
      <data key="IsInputTerminal">False</data>
      <data key="IsOutputTerminal">False</data>
      <data key="DisallowRegister">False</data>
      <data key="NodeType">4</data>
    </node>
    <node id="n4" parse.indegree="0" parse.outdegree="1">
      <data key="VertexId">4</data>
      <data key="NodeUniqueId">31</data>
      <data key="ThroughputCostIfRegistered">0</data>
      <data key="LatencyCostIfRegistered">1</data>
      <data key="RegisterCostIfRegistered">6</data>
      <data key="IsRegistered">False</data>
      <data key="IsInputTerminal">False</data>
      <data key="IsOutputTerminal">False</data>
      <data key="DisallowRegister">False</data>
      <data key="NodeType">4</data>
    </node>
    <node id="n5" parse.indegree="1" parse.outdegree="1">
      <data key="VertexId">5</data>
      <data key="NodeUniqueId">10</data>
      <data key="ThroughputCostIfRegistered">0</data>
      <data key="LatencyCostIfRegistered">1</data>
      <data key="RegisterCostIfRegistered">32</data>
      <data key="IsRegistered">False</data>
      <data key="IsInputTerminal">True</data>
      <data key="IsOutputTerminal">False</data>
      <data key="DisallowRegister">False</data>
      <data key="NodeType">4</data>
    </node>
    <node id="n6" parse.indegree="1" parse.outdegree="1">
      <data key="VertexId">6</data>
      <data key="NodeUniqueId">10</data>
      <data key="ThroughputCostIfRegistered">0</data>
      <data key="LatencyCostIfRegistered">1</data>
      <data key="RegisterCostIfRegistered">2</data>
      <data key="IsRegistered">False</data>
      <data key="IsInputTerminal">True</data>
      <data key="IsOutputTerminal">False</data>
      <data key="DisallowRegister">False</data>
      <data key="NodeType">4</data>
    </node>
    <node id="n7" parse.indegree="2" parse.outdegree="1">
      <data key="VertexId">7</data>
      <data key="NodeUniqueId">10</data>
      <data key="ThroughputCostIfRegistered">0</data>
      <data key="LatencyCostIfRegistered">1</data>
      <data key="RegisterCostIfRegistered">32</data>
      <data key="IsRegistered">False</data>
      <data key="IsInputTerminal">False</data>
      <data key="IsOutputTerminal">False</data>
      <data key="DisallowRegister">False</data>
      <data key="NodeType">4</data>
    </node>
    <node id="n8" parse.indegree="1" parse.outdegree="1">
      <data key="VertexId">8</data>
      <data key="NodeUniqueId">11</data>
      <data key="ThroughputCostIfRegistered">0</data>
      <data key="LatencyCostIfRegistered">1</data>
      <data key="RegisterCostIfRegistered">32</data>
      <data key="IsRegistered">False</data>
      <data key="IsInputTerminal">True</data>
      <data key="IsOutputTerminal">False</data>
      <data key="DisallowRegister">False</data>
      <data key="NodeType">4</data>
    </node>
    <node id="n9" parse.indegree="1" parse.outdegree="1">
      <data key="VertexId">9</data>
      <data key="NodeUniqueId">11</data>
      <data key="ThroughputCostIfRegistered">0</data>
      <data key="LatencyCostIfRegistered">1</data>
      <data key="RegisterCostIfRegistered">5</data>
      <data key="IsRegistered">False</data>
      <data key="IsInputTerminal">True</data>
      <data key="IsOutputTerminal">False</data>
      <data key="DisallowRegister">False</data>
      <data key="NodeType">4</data>
    </node>
    <node id="n10" parse.indegree="2" parse.outdegree="1">
      <data key="VertexId">10</data>
      <data key="NodeUniqueId">11</data>
      <data key="ThroughputCostIfRegistered">0</data>
      <data key="LatencyCostIfRegistered">1</data>
      <data key="RegisterCostIfRegistered">32</data>
      <data key="IsRegistered">False</data>
      <data key="IsInputTerminal">False</data>
      <data key="IsOutputTerminal">False</data>
      <data key="DisallowRegister">False</data>
      <data key="NodeType">4</data>
    </node>
    <node id="n11" parse.indegree="1" parse.outdegree="1">
      <data key="VertexId">11</data>
      <data key="NodeUniqueId">12</data>
      <data key="ThroughputCostIfRegistered">0</data>
      <data key="LatencyCostIfRegistered">1</data>
      <data key="RegisterCostIfRegistered">32</data>
      <data key="IsRegistered">False</data>
      <data key="IsInputTerminal">True</data>
      <data key="IsOutputTerminal">False</data>
      <data key="DisallowRegister">False</data>
      <data key="NodeType">4</data>
    </node>
    <node id="n12" parse.indegree="1" parse.outdegree="1">
      <data key="VertexId">12</data>
      <data key="NodeUniqueId">12</data>
      <data key="ThroughputCostIfRegistered">0</data>
      <data key="LatencyCostIfRegistered">1</data>
      <data key="RegisterCostIfRegistered">6</data>
      <data key="IsRegistered">False</data>
      <data key="IsInputTerminal">True</data>
      <data key="IsOutputTerminal">False</data>
      <data key="DisallowRegister">False</data>
      <data key="NodeType">4</data>
    </node>
    <node id="n13" parse.indegree="2" parse.outdegree="1">
      <data key="VertexId">13</data>
      <data key="NodeUniqueId">12</data>
      <data key="ThroughputCostIfRegistered">0</data>
      <data key="LatencyCostIfRegistered">1</data>
      <data key="RegisterCostIfRegistered">32</data>
      <data key="IsRegistered">False</data>
      <data key="IsInputTerminal">False</data>
      <data key="IsOutputTerminal">False</data>
      <data key="DisallowRegister">False</data>
      <data key="NodeType">4</data>
    </node>
    <node id="n14" parse.indegree="1" parse.outdegree="1">
      <data key="VertexId">14</data>
      <data key="NodeUniqueId">25</data>
      <data key="ThroughputCostIfRegistered">0</data>
      <data key="LatencyCostIfRegistered">1</data>
      <data key="RegisterCostIfRegistered">32</data>
      <data key="IsRegistered">False</data>
      <data key="IsInputTerminal">True</data>
      <data key="IsOutputTerminal">False</data>
      <data key="DisallowRegister">False</data>
      <data key="NodeType">4</data>
    </node>
    <node id="n15" parse.indegree="1" parse.outdegree="1">
      <data key="VertexId">15</data>
      <data key="NodeUniqueId">25</data>
      <data key="ThroughputCostIfRegistered">0</data>
      <data key="LatencyCostIfRegistered">1</data>
      <data key="RegisterCostIfRegistered">32</data>
      <data key="IsRegistered">False</data>
      <data key="IsInputTerminal">True</data>
      <data key="IsOutputTerminal">False</data>
      <data key="DisallowRegister">False</data>
      <data key="NodeType">4</data>
    </node>
    <node id="n16" parse.indegree="1" parse.outdegree="1">
      <data key="VertexId">16</data>
      <data key="NodeUniqueId">25</data>
      <data key="ThroughputCostIfRegistered">0</data>
      <data key="LatencyCostIfRegistered">1</data>
      <data key="RegisterCostIfRegistered">32</data>
      <data key="IsRegistered">False</data>
      <data key="IsInputTerminal">True</data>
      <data key="IsOutputTerminal">False</data>
      <data key="DisallowRegister">False</data>
      <data key="NodeType">4</data>
    </node>
    <node id="n17" parse.indegree="3" parse.outdegree="1">
      <data key="VertexId">17</data>
      <data key="NodeUniqueId">25</data>
      <data key="ThroughputCostIfRegistered">0</data>
      <data key="LatencyCostIfRegistered">1</data>
      <data key="RegisterCostIfRegistered">32</data>
      <data key="IsRegistered">False</data>
      <data key="IsInputTerminal">False</data>
      <data key="IsOutputTerminal">False</data>
      <data key="DisallowRegister">False</data>
      <data key="NodeType">4</data>
    </node>
    <node id="n18" parse.indegree="1" parse.outdegree="1">
      <data key="VertexId">18</data>
      <data key="NodeUniqueId">20</data>
      <data key="ThroughputCostIfRegistered">0</data>
      <data key="LatencyCostIfRegistered">1</data>
      <data key="RegisterCostIfRegistered">32</data>
      <data key="IsRegistered">False</data>
      <data key="IsInputTerminal">True</data>
      <data key="IsOutputTerminal">False</data>
      <data key="DisallowRegister">True</data>
      <data key="NodeType">4</data>
    </node>
    <node id="n19" parse.indegree="1" parse.outdegree="0">
      <data key="VertexId">19</data>
      <data key="NodeUniqueId">20</data>
      <data key="ThroughputCostIfRegistered">0</data>
      <data key="LatencyCostIfRegistered">0</data>
      <data key="RegisterCostIfRegistered">0</data>
      <data key="IsRegistered">True</data>
      <data key="IsInputTerminal">False</data>
      <data key="IsOutputTerminal">False</data>
      <data key="DisallowRegister">False</data>
      <data key="NodeType">4</data>
    </node>
    <edge id="e0" source="n0" target="n1">
      <data key="Delay">0</data>
      <data key="IsFeedback">False</data>
    </edge>
    <edge id="e1" source="n5" target="n7">
      <data key="Delay">0</data>
      <data key="IsFeedback">False</data>
    </edge>
    <edge id="e2" source="n6" target="n7">
      <data key="Delay">0</data>
      <data key="IsFeedback">False</data>
    </edge>
    <edge id="e3" source="n1" target="n5">
      <data key="Delay">0</data>
      <data key="IsFeedback">False</data>
    </edge>
    <edge id="e4" source="n2" target="n6">
      <data key="Delay">0</data>
      <data key="IsFeedback">False</data>
    </edge>
    <edge id="e5" source="n8" target="n10">
      <data key="Delay">0</data>
      <data key="IsFeedback">False</data>
    </edge>
    <edge id="e6" source="n9" target="n10">
      <data key="Delay">0</data>
      <data key="IsFeedback">False</data>
    </edge>
    <edge id="e7" source="n1" target="n8">
      <data key="Delay">0</data>
      <data key="IsFeedback">False</data>
    </edge>
    <edge id="e8" source="n3" target="n9">
      <data key="Delay">0</data>
      <data key="IsFeedback">False</data>
    </edge>
    <edge id="e9" source="n11" target="n13">
      <data key="Delay">0</data>
      <data key="IsFeedback">False</data>
    </edge>
    <edge id="e10" source="n12" target="n13">
      <data key="Delay">0</data>
      <data key="IsFeedback">False</data>
    </edge>
    <edge id="e11" source="n1" target="n11">
      <data key="Delay">0</data>
      <data key="IsFeedback">False</data>
    </edge>
    <edge id="e12" source="n4" target="n12">
      <data key="Delay">0</data>
      <data key="IsFeedback">False</data>
    </edge>
    <edge id="e13" source="n14" target="n17">
      <data key="Delay">318</data>
      <data key="IsFeedback">False</data>
    </edge>
    <edge id="e14" source="n15" target="n17">
      <data key="Delay">318</data>
      <data key="IsFeedback">False</data>
    </edge>
    <edge id="e15" source="n16" target="n17">
      <data key="Delay">318</data>
      <data key="IsFeedback">False</data>
    </edge>
    <edge id="e16" source="n13" target="n14">
      <data key="Delay">0</data>
      <data key="IsFeedback">False</data>
    </edge>
    <edge id="e17" source="n7" target="n15">
      <data key="Delay">0</data>
      <data key="IsFeedback">False</data>
    </edge>
    <edge id="e18" source="n10" target="n16">
      <data key="Delay">0</data>
      <data key="IsFeedback">False</data>
    </edge>
    <edge id="e19" source="n18" target="n19">
      <data key="Delay">0</data>
      <data key="IsFeedback">False</data>
    </edge>
    <edge id="e20" source="n17" target="n18">
      <data key="Delay">0</data>
      <data key="IsFeedback">False</data>
    </edge>
  </graph>
</graphml>
