<?xml version="1.0" encoding="UTF-8"?>
<!-- This file was generated from the DelayGraph object. -->
<graphml xmlns="http://graphml.graphdrawing.org/xmlns"
            xmlns:xsi="http://www.w3.org/2001/XMLSchema-instance"
            xsi:schemaLocation="http://graphml.graphdrawing.org/xmlns
                                http://graphml.graphdrawing.org/xmlns/1.0/graphml.xsd">
  <key id="VertexId" for="node" attr.name="VertexId" attr.type="int"/>
  <key id="NodeUniqueId" for="node" attr.name="NodeUniqueId" attr.type="int"/>
  <key id="ThroughputCostIfRegistered" for="node" attr.name="ThroughputCostIfRegistered" attr.type="long"/>
  <key id="LatencyCostIfRegistered" for="node" attr.name="LatencyCostIfRegistered" attr.type="long"/>
  <key id="RegisterCostIfRegistered" for="node" attr.name="RegisterCostIfRegistered" attr.type="long"/>
  <key id="IsRegistered" for="node" attr.name="IsRegistered" attr.type="boolean"/>
  <key id="IsInputTerminal" for="node" attr.name="IsInputTerminal" attr.type="boolean"/>
  <key id="IsOutputTerminal" for="node" attr.name="IsOutputTerminal" attr.type="boolean"/>
  <key id="DisallowRegister" for="node" attr.name="DisallowRegister" attr.type="boolean"/>
  <key id="NodeType" for="node" attr.name="NodeType" attr.type="int"/>
  <key id="Delay" for="edge" attr.name="Delay" attr.type="int"/>
  <key id="IsFeedback" for="edge" attr.name="IsFeedback" attr.type="boolean"/>
  <graph id="G" edgedefault="directed"
          parse.nodes="3" parse.edges="2"
          parse.nodeids="canonical" parse.edgeids="canonical"
          parse.order="nodesfirst">
    <node id="n0" parse.indegree="0" parse.outdegree="1">
      <data key="VertexId">0</data>
      <data key="NodeUniqueId">37</data>
      <data key="ThroughputCostIfRegistered">0</data>
      <data key="LatencyCostIfRegistered">1</data>
      <data key="RegisterCostIfRegistered">5</data>
      <data key="IsRegistered">False</data>
      <data key="IsInputTerminal">False</data>
      <data key="IsOutputTerminal">False</data>
      <data key="DisallowRegister">False</data>
      <data key="NodeType">4</data>
    </node>
    <node id="n1" parse.indegree="1" parse.outdegree="1">
      <data key="VertexId">1</data>
      <data key="NodeUniqueId">25</data>
      <data key="ThroughputCostIfRegistered">0</data>
      <data key="LatencyCostIfRegistered">1</data>
      <data key="RegisterCostIfRegistered">5</data>
      <data key="IsRegistered">False</data>
      <data key="IsInputTerminal">True</data>
      <data key="IsOutputTerminal">False</data>
      <data key="DisallowRegister">True</data>
      <data key="NodeType">4</data>
    </node>
    <node id="n2" parse.indegree="1" parse.outdegree="0">
      <data key="VertexId">2</data>
      <data key="NodeUniqueId">25</data>
      <data key="ThroughputCostIfRegistered">0</data>
      <data key="LatencyCostIfRegistered">0</data>
      <data key="RegisterCostIfRegistered">0</data>
      <data key="IsRegistered">True</data>
      <data key="IsInputTerminal">False</data>
      <data key="IsOutputTerminal">False</data>
      <data key="DisallowRegister">False</data>
      <data key="NodeType">4</data>
    </node>
    <edge id="e0" source="n1" target="n2">
      <data key="Delay">0</data>
      <data key="IsFeedback">False</data>
    </edge>
    <edge id="e1" source="n0" target="n1">
      <data key="Delay">0</data>
      <data key="IsFeedback">False</data>
    </edge>
  </graph>
</graphml>
