<?xml version="1.0" encoding="UTF-8"?>
<!-- This file was generated from the DelayGraph object. -->
<graphml xmlns="http://graphml.graphdrawing.org/xmlns"
            xmlns:xsi="http://www.w3.org/2001/XMLSchema-instance"
            xsi:schemaLocation="http://graphml.graphdrawing.org/xmlns
                                http://graphml.graphdrawing.org/xmlns/1.0/graphml.xsd">
  <key id="VertexId" for="node" attr.name="VertexId" attr.type="int"/>
  <key id="NodeUniqueId" for="node" attr.name="NodeUniqueId" attr.type="int"/>
  <key id="ThroughputCostIfRegistered" for="node" attr.name="ThroughputCostIfRegistered" attr.type="long"/>
  <key id="LatencyCostIfRegistered" for="node" attr.name="LatencyCostIfRegistered" attr.type="long"/>
  <key id="RegisterCostIfRegistered" for="node" attr.name="RegisterCostIfRegistered" attr.type="long"/>
  <key id="IsRegistered" for="node" attr.name="IsRegistered" attr.type="boolean"/>
  <key id="IsInputTerminal" for="node" attr.name="IsInputTerminal" attr.type="boolean"/>
  <key id="IsOutputTerminal" for="node" attr.name="IsOutputTerminal" attr.type="boolean"/>
  <key id="DisallowRegister" for="node" attr.name="DisallowRegister" attr.type="boolean"/>
  <key id="NodeType" for="node" attr.name="NodeType" attr.type="int"/>
  <key id="Delay" for="edge" attr.name="Delay" attr.type="int"/>
  <key id="IsFeedback" for="edge" attr.name="IsFeedback" attr.type="boolean"/>
  <graph id="G" edgedefault="directed"
          parse.nodes="90" parse.edges="96"
          parse.nodeids="canonical" parse.edgeids="canonical"
          parse.order="nodesfirst">
    <node id="n0" parse.indegree="0" parse.outdegree="1">
      <data key="VertexId">0</data>
      <data key="NodeUniqueId">4</data>
      <data key="ThroughputCostIfRegistered">0</data>
      <data key="LatencyCostIfRegistered">1</data>
      <data key="RegisterCostIfRegistered">35</data>
      <data key="IsRegistered">False</data>
      <data key="IsInputTerminal">False</data>
      <data key="IsOutputTerminal">False</data>
      <data key="DisallowRegister">False</data>
      <data key="NodeType">4</data>
    </node>
    <node id="n1" parse.indegree="0" parse.outdegree="1">
      <data key="VertexId">1</data>
      <data key="NodeUniqueId">5</data>
      <data key="ThroughputCostIfRegistered">0</data>
      <data key="LatencyCostIfRegistered">1</data>
      <data key="RegisterCostIfRegistered">17</data>
      <data key="IsRegistered">False</data>
      <data key="IsInputTerminal">False</data>
      <data key="IsOutputTerminal">False</data>
      <data key="DisallowRegister">False</data>
      <data key="NodeType">4</data>
    </node>
    <node id="n2" parse.indegree="0" parse.outdegree="1">
      <data key="VertexId">2</data>
      <data key="NodeUniqueId">9</data>
      <data key="ThroughputCostIfRegistered">0</data>
      <data key="LatencyCostIfRegistered">1</data>
      <data key="RegisterCostIfRegistered">18</data>
      <data key="IsRegistered">False</data>
      <data key="IsInputTerminal">False</data>
      <data key="IsOutputTerminal">False</data>
      <data key="DisallowRegister">False</data>
      <data key="NodeType">4</data>
    </node>
    <node id="n3" parse.indegree="0" parse.outdegree="1">
      <data key="VertexId">3</data>
      <data key="NodeUniqueId">11</data>
      <data key="ThroughputCostIfRegistered">0</data>
      <data key="LatencyCostIfRegistered">0</data>
      <data key="RegisterCostIfRegistered">0</data>
      <data key="IsRegistered">True</data>
      <data key="IsInputTerminal">False</data>
      <data key="IsOutputTerminal">False</data>
      <data key="DisallowRegister">False</data>
      <data key="NodeType">4</data>
    </node>
    <node id="n4" parse.indegree="1" parse.outdegree="1">
      <data key="VertexId">4</data>
      <data key="NodeUniqueId">11</data>
      <data key="ThroughputCostIfRegistered">0</data>
      <data key="LatencyCostIfRegistered">1</data>
      <data key="RegisterCostIfRegistered">48</data>
      <data key="IsRegistered">False</data>
      <data key="IsInputTerminal">False</data>
      <data key="IsOutputTerminal">False</data>
      <data key="DisallowRegister">True</data>
      <data key="NodeType">4</data>
    </node>
    <node id="n5" parse.indegree="0" parse.outdegree="1">
      <data key="VertexId">5</data>
      <data key="NodeUniqueId">12</data>
      <data key="ThroughputCostIfRegistered">0</data>
      <data key="LatencyCostIfRegistered">0</data>
      <data key="RegisterCostIfRegistered">0</data>
      <data key="IsRegistered">True</data>
      <data key="IsInputTerminal">False</data>
      <data key="IsOutputTerminal">False</data>
      <data key="DisallowRegister">False</data>
      <data key="NodeType">4</data>
    </node>
    <node id="n6" parse.indegree="1" parse.outdegree="2">
      <data key="VertexId">6</data>
      <data key="NodeUniqueId">12</data>
      <data key="ThroughputCostIfRegistered">0</data>
      <data key="LatencyCostIfRegistered">1</data>
      <data key="RegisterCostIfRegistered">16</data>
      <data key="IsRegistered">False</data>
      <data key="IsInputTerminal">False</data>
      <data key="IsOutputTerminal">False</data>
      <data key="DisallowRegister">True</data>
      <data key="NodeType">4</data>
    </node>
    <node id="n7" parse.indegree="0" parse.outdegree="1">
      <data key="VertexId">7</data>
      <data key="NodeUniqueId">13</data>
      <data key="ThroughputCostIfRegistered">0</data>
      <data key="LatencyCostIfRegistered">0</data>
      <data key="RegisterCostIfRegistered">0</data>
      <data key="IsRegistered">True</data>
      <data key="IsInputTerminal">False</data>
      <data key="IsOutputTerminal">False</data>
      <data key="DisallowRegister">False</data>
      <data key="NodeType">4</data>
    </node>
    <node id="n8" parse.indegree="1" parse.outdegree="1">
      <data key="VertexId">8</data>
      <data key="NodeUniqueId">13</data>
      <data key="ThroughputCostIfRegistered">0</data>
      <data key="LatencyCostIfRegistered">1</data>
      <data key="RegisterCostIfRegistered">48</data>
      <data key="IsRegistered">False</data>
      <data key="IsInputTerminal">False</data>
      <data key="IsOutputTerminal">False</data>
      <data key="DisallowRegister">True</data>
      <data key="NodeType">4</data>
    </node>
    <node id="n9" parse.indegree="0" parse.outdegree="1">
      <data key="VertexId">9</data>
      <data key="NodeUniqueId">192</data>
      <data key="ThroughputCostIfRegistered">0</data>
      <data key="LatencyCostIfRegistered">1</data>
      <data key="RegisterCostIfRegistered">32</data>
      <data key="IsRegistered">False</data>
      <data key="IsInputTerminal">False</data>
      <data key="IsOutputTerminal">False</data>
      <data key="DisallowRegister">False</data>
      <data key="NodeType">4</data>
    </node>
    <node id="n10" parse.indegree="0" parse.outdegree="1">
      <data key="VertexId">10</data>
      <data key="NodeUniqueId">197</data>
      <data key="ThroughputCostIfRegistered">0</data>
      <data key="LatencyCostIfRegistered">1</data>
      <data key="RegisterCostIfRegistered">32</data>
      <data key="IsRegistered">False</data>
      <data key="IsInputTerminal">False</data>
      <data key="IsOutputTerminal">False</data>
      <data key="DisallowRegister">False</data>
      <data key="NodeType">4</data>
    </node>
    <node id="n11" parse.indegree="0" parse.outdegree="1">
      <data key="VertexId">11</data>
      <data key="NodeUniqueId">215</data>
      <data key="ThroughputCostIfRegistered">0</data>
      <data key="LatencyCostIfRegistered">1</data>
      <data key="RegisterCostIfRegistered">32</data>
      <data key="IsRegistered">False</data>
      <data key="IsInputTerminal">False</data>
      <data key="IsOutputTerminal">False</data>
      <data key="DisallowRegister">False</data>
      <data key="NodeType">4</data>
    </node>
    <node id="n12" parse.indegree="0" parse.outdegree="1">
      <data key="VertexId">12</data>
      <data key="NodeUniqueId">220</data>
      <data key="ThroughputCostIfRegistered">0</data>
      <data key="LatencyCostIfRegistered">1</data>
      <data key="RegisterCostIfRegistered">32</data>
      <data key="IsRegistered">False</data>
      <data key="IsInputTerminal">False</data>
      <data key="IsOutputTerminal">False</data>
      <data key="DisallowRegister">False</data>
      <data key="NodeType">4</data>
    </node>
    <node id="n13" parse.indegree="0" parse.outdegree="1">
      <data key="VertexId">13</data>
      <data key="NodeUniqueId">225</data>
      <data key="ThroughputCostIfRegistered">0</data>
      <data key="LatencyCostIfRegistered">1</data>
      <data key="RegisterCostIfRegistered">32</data>
      <data key="IsRegistered">False</data>
      <data key="IsInputTerminal">False</data>
      <data key="IsOutputTerminal">False</data>
      <data key="DisallowRegister">False</data>
      <data key="NodeType">4</data>
    </node>
    <node id="n14" parse.indegree="0" parse.outdegree="1">
      <data key="VertexId">14</data>
      <data key="NodeUniqueId">286</data>
      <data key="ThroughputCostIfRegistered">0</data>
      <data key="LatencyCostIfRegistered">1</data>
      <data key="RegisterCostIfRegistered">16</data>
      <data key="IsRegistered">False</data>
      <data key="IsInputTerminal">False</data>
      <data key="IsOutputTerminal">False</data>
      <data key="DisallowRegister">False</data>
      <data key="NodeType">4</data>
    </node>
    <node id="n15" parse.indegree="0" parse.outdegree="1">
      <data key="VertexId">15</data>
      <data key="NodeUniqueId">295</data>
      <data key="ThroughputCostIfRegistered">0</data>
      <data key="LatencyCostIfRegistered">1</data>
      <data key="RegisterCostIfRegistered">16</data>
      <data key="IsRegistered">False</data>
      <data key="IsInputTerminal">False</data>
      <data key="IsOutputTerminal">False</data>
      <data key="DisallowRegister">False</data>
      <data key="NodeType">4</data>
    </node>
    <node id="n16" parse.indegree="0" parse.outdegree="1">
      <data key="VertexId">16</data>
      <data key="NodeUniqueId">304</data>
      <data key="ThroughputCostIfRegistered">0</data>
      <data key="LatencyCostIfRegistered">1</data>
      <data key="RegisterCostIfRegistered">35</data>
      <data key="IsRegistered">False</data>
      <data key="IsInputTerminal">False</data>
      <data key="IsOutputTerminal">False</data>
      <data key="DisallowRegister">False</data>
      <data key="NodeType">4</data>
    </node>
    <node id="n17" parse.indegree="1" parse.outdegree="1">
      <data key="VertexId">17</data>
      <data key="NodeUniqueId">26</data>
      <data key="ThroughputCostIfRegistered">0</data>
      <data key="LatencyCostIfRegistered">1</data>
      <data key="RegisterCostIfRegistered">35</data>
      <data key="IsRegistered">False</data>
      <data key="IsInputTerminal">True</data>
      <data key="IsOutputTerminal">False</data>
      <data key="DisallowRegister">True</data>
      <data key="NodeType">4</data>
    </node>
    <node id="n18" parse.indegree="2" parse.outdegree="2">
      <data key="VertexId">18</data>
      <data key="NodeUniqueId">26</data>
      <data key="ThroughputCostIfRegistered">1</data>
      <data key="LatencyCostIfRegistered">1</data>
      <data key="RegisterCostIfRegistered">35</data>
      <data key="IsRegistered">False</data>
      <data key="IsInputTerminal">False</data>
      <data key="IsOutputTerminal">False</data>
      <data key="DisallowRegister">True</data>
      <data key="NodeType">4</data>
    </node>
    <node id="n19" parse.indegree="1" parse.outdegree="3">
      <data key="VertexId">19</data>
      <data key="NodeUniqueId">201</data>
      <data key="ThroughputCostIfRegistered">0</data>
      <data key="LatencyCostIfRegistered">1</data>
      <data key="RegisterCostIfRegistered">48</data>
      <data key="IsRegistered">False</data>
      <data key="IsInputTerminal">True</data>
      <data key="IsOutputTerminal">False</data>
      <data key="DisallowRegister">False</data>
      <data key="NodeType">4</data>
    </node>
    <node id="n20" parse.indegree="1" parse.outdegree="1">
      <data key="VertexId">20</data>
      <data key="NodeUniqueId">201</data>
      <data key="ThroughputCostIfRegistered">0</data>
      <data key="LatencyCostIfRegistered">1</data>
      <data key="RegisterCostIfRegistered">16</data>
      <data key="IsRegistered">False</data>
      <data key="IsInputTerminal">False</data>
      <data key="IsOutputTerminal">False</data>
      <data key="DisallowRegister">False</data>
      <data key="NodeType">4</data>
    </node>
    <node id="n21" parse.indegree="1" parse.outdegree="1">
      <data key="VertexId">21</data>
      <data key="NodeUniqueId">201</data>
      <data key="ThroughputCostIfRegistered">0</data>
      <data key="LatencyCostIfRegistered">1</data>
      <data key="RegisterCostIfRegistered">16</data>
      <data key="IsRegistered">False</data>
      <data key="IsInputTerminal">False</data>
      <data key="IsOutputTerminal">False</data>
      <data key="DisallowRegister">False</data>
      <data key="NodeType">4</data>
    </node>
    <node id="n22" parse.indegree="1" parse.outdegree="1">
      <data key="VertexId">22</data>
      <data key="NodeUniqueId">201</data>
      <data key="ThroughputCostIfRegistered">0</data>
      <data key="LatencyCostIfRegistered">1</data>
      <data key="RegisterCostIfRegistered">16</data>
      <data key="IsRegistered">False</data>
      <data key="IsInputTerminal">False</data>
      <data key="IsOutputTerminal">False</data>
      <data key="DisallowRegister">False</data>
      <data key="NodeType">4</data>
    </node>
    <node id="n23" parse.indegree="1" parse.outdegree="1">
      <data key="VertexId">23</data>
      <data key="NodeUniqueId">233</data>
      <data key="ThroughputCostIfRegistered">0</data>
      <data key="LatencyCostIfRegistered">1</data>
      <data key="RegisterCostIfRegistered">16</data>
      <data key="IsRegistered">False</data>
      <data key="IsInputTerminal">True</data>
      <data key="IsOutputTerminal">False</data>
      <data key="DisallowRegister">True</data>
      <data key="NodeType">0</data>
    </node>
    <node id="n24" parse.indegree="2" parse.outdegree="2">
      <data key="VertexId">24</data>
      <data key="NodeUniqueId">232</data>
      <data key="ThroughputCostIfRegistered">0</data>
      <data key="LatencyCostIfRegistered">1</data>
      <data key="RegisterCostIfRegistered">16</data>
      <data key="IsRegistered">False</data>
      <data key="IsInputTerminal">False</data>
      <data key="IsOutputTerminal">False</data>
      <data key="DisallowRegister">True</data>
      <data key="NodeType">4</data>
    </node>
    <node id="n25" parse.indegree="1" parse.outdegree="2">
      <data key="VertexId">25</data>
      <data key="NodeUniqueId">182</data>
      <data key="ThroughputCostIfRegistered">0</data>
      <data key="LatencyCostIfRegistered">1</data>
      <data key="RegisterCostIfRegistered">48</data>
      <data key="IsRegistered">False</data>
      <data key="IsInputTerminal">True</data>
      <data key="IsOutputTerminal">False</data>
      <data key="DisallowRegister">False</data>
      <data key="NodeType">4</data>
    </node>
    <node id="n26" parse.indegree="1" parse.outdegree="1">
      <data key="VertexId">26</data>
      <data key="NodeUniqueId">182</data>
      <data key="ThroughputCostIfRegistered">0</data>
      <data key="LatencyCostIfRegistered">1</data>
      <data key="RegisterCostIfRegistered">16</data>
      <data key="IsRegistered">False</data>
      <data key="IsInputTerminal">False</data>
      <data key="IsOutputTerminal">False</data>
      <data key="DisallowRegister">False</data>
      <data key="NodeType">4</data>
    </node>
    <node id="n27" parse.indegree="1" parse.outdegree="1">
      <data key="VertexId">27</data>
      <data key="NodeUniqueId">182</data>
      <data key="ThroughputCostIfRegistered">0</data>
      <data key="LatencyCostIfRegistered">1</data>
      <data key="RegisterCostIfRegistered">16</data>
      <data key="IsRegistered">False</data>
      <data key="IsInputTerminal">False</data>
      <data key="IsOutputTerminal">False</data>
      <data key="DisallowRegister">False</data>
      <data key="NodeType">4</data>
    </node>
    <node id="n28" parse.indegree="1" parse.outdegree="1">
      <data key="VertexId">28</data>
      <data key="NodeUniqueId">232</data>
      <data key="ThroughputCostIfRegistered">0</data>
      <data key="LatencyCostIfRegistered">1</data>
      <data key="RegisterCostIfRegistered">16</data>
      <data key="IsRegistered">False</data>
      <data key="IsInputTerminal">True</data>
      <data key="IsOutputTerminal">False</data>
      <data key="DisallowRegister">True</data>
      <data key="NodeType">4</data>
    </node>
    <node id="n29" parse.indegree="1" parse.outdegree="1">
      <data key="VertexId">29</data>
      <data key="NodeUniqueId">235</data>
      <data key="ThroughputCostIfRegistered">0</data>
      <data key="LatencyCostIfRegistered">1</data>
      <data key="RegisterCostIfRegistered">16</data>
      <data key="IsRegistered">False</data>
      <data key="IsInputTerminal">True</data>
      <data key="IsOutputTerminal">False</data>
      <data key="DisallowRegister">True</data>
      <data key="NodeType">4</data>
    </node>
    <node id="n30" parse.indegree="2" parse.outdegree="1">
      <data key="VertexId">30</data>
      <data key="NodeUniqueId">235</data>
      <data key="ThroughputCostIfRegistered">0</data>
      <data key="LatencyCostIfRegistered">1</data>
      <data key="RegisterCostIfRegistered">16</data>
      <data key="IsRegistered">False</data>
      <data key="IsInputTerminal">False</data>
      <data key="IsOutputTerminal">False</data>
      <data key="DisallowRegister">True</data>
      <data key="NodeType">4</data>
    </node>
    <node id="n31" parse.indegree="1" parse.outdegree="1">
      <data key="VertexId">31</data>
      <data key="NodeUniqueId">266</data>
      <data key="ThroughputCostIfRegistered">0</data>
      <data key="LatencyCostIfRegistered">1</data>
      <data key="RegisterCostIfRegistered">35</data>
      <data key="IsRegistered">False</data>
      <data key="IsInputTerminal">True</data>
      <data key="IsOutputTerminal">False</data>
      <data key="DisallowRegister">True</data>
      <data key="NodeType">4</data>
    </node>
    <node id="n32" parse.indegree="2" parse.outdegree="1">
      <data key="VertexId">32</data>
      <data key="NodeUniqueId">266</data>
      <data key="ThroughputCostIfRegistered">1</data>
      <data key="LatencyCostIfRegistered">1</data>
      <data key="RegisterCostIfRegistered">35</data>
      <data key="IsRegistered">False</data>
      <data key="IsInputTerminal">False</data>
      <data key="IsOutputTerminal">False</data>
      <data key="DisallowRegister">True</data>
      <data key="NodeType">4</data>
    </node>
    <node id="n33" parse.indegree="1" parse.outdegree="1">
      <data key="VertexId">33</data>
      <data key="NodeUniqueId">267</data>
      <data key="ThroughputCostIfRegistered">1</data>
      <data key="LatencyCostIfRegistered">1</data>
      <data key="RegisterCostIfRegistered">35</data>
      <data key="IsRegistered">False</data>
      <data key="IsInputTerminal">True</data>
      <data key="IsOutputTerminal">False</data>
      <data key="DisallowRegister">True</data>
      <data key="NodeType">0</data>
    </node>
    <node id="n34" parse.indegree="1" parse.outdegree="1">
      <data key="VertexId">34</data>
      <data key="NodeUniqueId">214</data>
      <data key="ThroughputCostIfRegistered">0</data>
      <data key="LatencyCostIfRegistered">1</data>
      <data key="RegisterCostIfRegistered">16</data>
      <data key="IsRegistered">False</data>
      <data key="IsInputTerminal">True</data>
      <data key="IsOutputTerminal">False</data>
      <data key="DisallowRegister">True</data>
      <data key="NodeType">4</data>
    </node>
    <node id="n35" parse.indegree="1" parse.outdegree="1">
      <data key="VertexId">35</data>
      <data key="NodeUniqueId">214</data>
      <data key="ThroughputCostIfRegistered">0</data>
      <data key="LatencyCostIfRegistered">1</data>
      <data key="RegisterCostIfRegistered">32</data>
      <data key="IsRegistered">False</data>
      <data key="IsInputTerminal">True</data>
      <data key="IsOutputTerminal">False</data>
      <data key="DisallowRegister">True</data>
      <data key="NodeType">4</data>
    </node>
    <node id="n36" parse.indegree="2" parse.outdegree="1">
      <data key="VertexId">36</data>
      <data key="NodeUniqueId">214</data>
      <data key="ThroughputCostIfRegistered">0</data>
      <data key="LatencyCostIfRegistered">1</data>
      <data key="RegisterCostIfRegistered">16</data>
      <data key="IsRegistered">False</data>
      <data key="IsInputTerminal">False</data>
      <data key="IsOutputTerminal">False</data>
      <data key="DisallowRegister">False</data>
      <data key="NodeType">4</data>
    </node>
    <node id="n37" parse.indegree="1" parse.outdegree="1">
      <data key="VertexId">37</data>
      <data key="NodeUniqueId">219</data>
      <data key="ThroughputCostIfRegistered">0</data>
      <data key="LatencyCostIfRegistered">1</data>
      <data key="RegisterCostIfRegistered">16</data>
      <data key="IsRegistered">False</data>
      <data key="IsInputTerminal">True</data>
      <data key="IsOutputTerminal">False</data>
      <data key="DisallowRegister">True</data>
      <data key="NodeType">4</data>
    </node>
    <node id="n38" parse.indegree="1" parse.outdegree="1">
      <data key="VertexId">38</data>
      <data key="NodeUniqueId">219</data>
      <data key="ThroughputCostIfRegistered">0</data>
      <data key="LatencyCostIfRegistered">1</data>
      <data key="RegisterCostIfRegistered">32</data>
      <data key="IsRegistered">False</data>
      <data key="IsInputTerminal">True</data>
      <data key="IsOutputTerminal">False</data>
      <data key="DisallowRegister">True</data>
      <data key="NodeType">4</data>
    </node>
    <node id="n39" parse.indegree="2" parse.outdegree="1">
      <data key="VertexId">39</data>
      <data key="NodeUniqueId">219</data>
      <data key="ThroughputCostIfRegistered">0</data>
      <data key="LatencyCostIfRegistered">1</data>
      <data key="RegisterCostIfRegistered">16</data>
      <data key="IsRegistered">False</data>
      <data key="IsInputTerminal">False</data>
      <data key="IsOutputTerminal">False</data>
      <data key="DisallowRegister">False</data>
      <data key="NodeType">4</data>
    </node>
    <node id="n40" parse.indegree="1" parse.outdegree="1">
      <data key="VertexId">40</data>
      <data key="NodeUniqueId">224</data>
      <data key="ThroughputCostIfRegistered">0</data>
      <data key="LatencyCostIfRegistered">1</data>
      <data key="RegisterCostIfRegistered">16</data>
      <data key="IsRegistered">False</data>
      <data key="IsInputTerminal">True</data>
      <data key="IsOutputTerminal">False</data>
      <data key="DisallowRegister">True</data>
      <data key="NodeType">4</data>
    </node>
    <node id="n41" parse.indegree="1" parse.outdegree="1">
      <data key="VertexId">41</data>
      <data key="NodeUniqueId">224</data>
      <data key="ThroughputCostIfRegistered">0</data>
      <data key="LatencyCostIfRegistered">1</data>
      <data key="RegisterCostIfRegistered">32</data>
      <data key="IsRegistered">False</data>
      <data key="IsInputTerminal">True</data>
      <data key="IsOutputTerminal">False</data>
      <data key="DisallowRegister">True</data>
      <data key="NodeType">4</data>
    </node>
    <node id="n42" parse.indegree="2" parse.outdegree="1">
      <data key="VertexId">42</data>
      <data key="NodeUniqueId">224</data>
      <data key="ThroughputCostIfRegistered">0</data>
      <data key="LatencyCostIfRegistered">1</data>
      <data key="RegisterCostIfRegistered">16</data>
      <data key="IsRegistered">False</data>
      <data key="IsInputTerminal">False</data>
      <data key="IsOutputTerminal">False</data>
      <data key="DisallowRegister">False</data>
      <data key="NodeType">4</data>
    </node>
    <node id="n43" parse.indegree="1" parse.outdegree="1">
      <data key="VertexId">43</data>
      <data key="NodeUniqueId">191</data>
      <data key="ThroughputCostIfRegistered">0</data>
      <data key="LatencyCostIfRegistered">1</data>
      <data key="RegisterCostIfRegistered">16</data>
      <data key="IsRegistered">False</data>
      <data key="IsInputTerminal">True</data>
      <data key="IsOutputTerminal">False</data>
      <data key="DisallowRegister">True</data>
      <data key="NodeType">4</data>
    </node>
    <node id="n44" parse.indegree="1" parse.outdegree="1">
      <data key="VertexId">44</data>
      <data key="NodeUniqueId">191</data>
      <data key="ThroughputCostIfRegistered">0</data>
      <data key="LatencyCostIfRegistered">1</data>
      <data key="RegisterCostIfRegistered">32</data>
      <data key="IsRegistered">False</data>
      <data key="IsInputTerminal">True</data>
      <data key="IsOutputTerminal">False</data>
      <data key="DisallowRegister">True</data>
      <data key="NodeType">4</data>
    </node>
    <node id="n45" parse.indegree="2" parse.outdegree="1">
      <data key="VertexId">45</data>
      <data key="NodeUniqueId">191</data>
      <data key="ThroughputCostIfRegistered">0</data>
      <data key="LatencyCostIfRegistered">1</data>
      <data key="RegisterCostIfRegistered">16</data>
      <data key="IsRegistered">False</data>
      <data key="IsInputTerminal">False</data>
      <data key="IsOutputTerminal">False</data>
      <data key="DisallowRegister">False</data>
      <data key="NodeType">4</data>
    </node>
    <node id="n46" parse.indegree="1" parse.outdegree="1">
      <data key="VertexId">46</data>
      <data key="NodeUniqueId">196</data>
      <data key="ThroughputCostIfRegistered">0</data>
      <data key="LatencyCostIfRegistered">1</data>
      <data key="RegisterCostIfRegistered">16</data>
      <data key="IsRegistered">False</data>
      <data key="IsInputTerminal">True</data>
      <data key="IsOutputTerminal">False</data>
      <data key="DisallowRegister">True</data>
      <data key="NodeType">4</data>
    </node>
    <node id="n47" parse.indegree="1" parse.outdegree="1">
      <data key="VertexId">47</data>
      <data key="NodeUniqueId">196</data>
      <data key="ThroughputCostIfRegistered">0</data>
      <data key="LatencyCostIfRegistered">1</data>
      <data key="RegisterCostIfRegistered">32</data>
      <data key="IsRegistered">False</data>
      <data key="IsInputTerminal">True</data>
      <data key="IsOutputTerminal">False</data>
      <data key="DisallowRegister">True</data>
      <data key="NodeType">4</data>
    </node>
    <node id="n48" parse.indegree="2" parse.outdegree="1">
      <data key="VertexId">48</data>
      <data key="NodeUniqueId">196</data>
      <data key="ThroughputCostIfRegistered">0</data>
      <data key="LatencyCostIfRegistered">1</data>
      <data key="RegisterCostIfRegistered">16</data>
      <data key="IsRegistered">False</data>
      <data key="IsInputTerminal">False</data>
      <data key="IsOutputTerminal">False</data>
      <data key="DisallowRegister">False</data>
      <data key="NodeType">4</data>
    </node>
    <node id="n49" parse.indegree="1" parse.outdegree="1">
      <data key="VertexId">49</data>
      <data key="NodeUniqueId">236</data>
      <data key="ThroughputCostIfRegistered">0</data>
      <data key="LatencyCostIfRegistered">1</data>
      <data key="RegisterCostIfRegistered">16</data>
      <data key="IsRegistered">False</data>
      <data key="IsInputTerminal">True</data>
      <data key="IsOutputTerminal">False</data>
      <data key="DisallowRegister">True</data>
      <data key="NodeType">0</data>
    </node>
    <node id="n50" parse.indegree="1" parse.outdegree="1">
      <data key="VertexId">50</data>
      <data key="NodeUniqueId">153</data>
      <data key="ThroughputCostIfRegistered">0</data>
      <data key="LatencyCostIfRegistered">1</data>
      <data key="RegisterCostIfRegistered">16</data>
      <data key="IsRegistered">False</data>
      <data key="IsInputTerminal">True</data>
      <data key="IsOutputTerminal">False</data>
      <data key="DisallowRegister">False</data>
      <data key="NodeType">4</data>
    </node>
    <node id="n51" parse.indegree="1" parse.outdegree="1">
      <data key="VertexId">51</data>
      <data key="NodeUniqueId">153</data>
      <data key="ThroughputCostIfRegistered">0</data>
      <data key="LatencyCostIfRegistered">1</data>
      <data key="RegisterCostIfRegistered">16</data>
      <data key="IsRegistered">False</data>
      <data key="IsInputTerminal">True</data>
      <data key="IsOutputTerminal">False</data>
      <data key="DisallowRegister">False</data>
      <data key="NodeType">4</data>
    </node>
    <node id="n52" parse.indegree="2" parse.outdegree="1">
      <data key="VertexId">52</data>
      <data key="NodeUniqueId">153</data>
      <data key="ThroughputCostIfRegistered">0</data>
      <data key="LatencyCostIfRegistered">1</data>
      <data key="RegisterCostIfRegistered">16</data>
      <data key="IsRegistered">False</data>
      <data key="IsInputTerminal">False</data>
      <data key="IsOutputTerminal">False</data>
      <data key="DisallowRegister">False</data>
      <data key="NodeType">4</data>
    </node>
    <node id="n53" parse.indegree="1" parse.outdegree="1">
      <data key="VertexId">53</data>
      <data key="NodeUniqueId">162</data>
      <data key="ThroughputCostIfRegistered">0</data>
      <data key="LatencyCostIfRegistered">1</data>
      <data key="RegisterCostIfRegistered">16</data>
      <data key="IsRegistered">False</data>
      <data key="IsInputTerminal">True</data>
      <data key="IsOutputTerminal">False</data>
      <data key="DisallowRegister">False</data>
      <data key="NodeType">4</data>
    </node>
    <node id="n54" parse.indegree="1" parse.outdegree="1">
      <data key="VertexId">54</data>
      <data key="NodeUniqueId">162</data>
      <data key="ThroughputCostIfRegistered">0</data>
      <data key="LatencyCostIfRegistered">1</data>
      <data key="RegisterCostIfRegistered">16</data>
      <data key="IsRegistered">False</data>
      <data key="IsInputTerminal">True</data>
      <data key="IsOutputTerminal">False</data>
      <data key="DisallowRegister">False</data>
      <data key="NodeType">4</data>
    </node>
    <node id="n55" parse.indegree="2" parse.outdegree="1">
      <data key="VertexId">55</data>
      <data key="NodeUniqueId">162</data>
      <data key="ThroughputCostIfRegistered">0</data>
      <data key="LatencyCostIfRegistered">1</data>
      <data key="RegisterCostIfRegistered">16</data>
      <data key="IsRegistered">False</data>
      <data key="IsInputTerminal">False</data>
      <data key="IsOutputTerminal">False</data>
      <data key="DisallowRegister">False</data>
      <data key="NodeType">4</data>
    </node>
    <node id="n56" parse.indegree="1" parse.outdegree="1">
      <data key="VertexId">56</data>
      <data key="NodeUniqueId">174</data>
      <data key="ThroughputCostIfRegistered">0</data>
      <data key="LatencyCostIfRegistered">1</data>
      <data key="RegisterCostIfRegistered">16</data>
      <data key="IsRegistered">False</data>
      <data key="IsInputTerminal">True</data>
      <data key="IsOutputTerminal">False</data>
      <data key="DisallowRegister">False</data>
      <data key="NodeType">4</data>
    </node>
    <node id="n57" parse.indegree="1" parse.outdegree="1">
      <data key="VertexId">57</data>
      <data key="NodeUniqueId">174</data>
      <data key="ThroughputCostIfRegistered">0</data>
      <data key="LatencyCostIfRegistered">1</data>
      <data key="RegisterCostIfRegistered">16</data>
      <data key="IsRegistered">False</data>
      <data key="IsInputTerminal">True</data>
      <data key="IsOutputTerminal">False</data>
      <data key="DisallowRegister">False</data>
      <data key="NodeType">4</data>
    </node>
    <node id="n58" parse.indegree="2" parse.outdegree="1">
      <data key="VertexId">58</data>
      <data key="NodeUniqueId">174</data>
      <data key="ThroughputCostIfRegistered">0</data>
      <data key="LatencyCostIfRegistered">1</data>
      <data key="RegisterCostIfRegistered">16</data>
      <data key="IsRegistered">False</data>
      <data key="IsInputTerminal">False</data>
      <data key="IsOutputTerminal">False</data>
      <data key="DisallowRegister">False</data>
      <data key="NodeType">4</data>
    </node>
    <node id="n59" parse.indegree="1" parse.outdegree="1">
      <data key="VertexId">59</data>
      <data key="NodeUniqueId">120</data>
      <data key="ThroughputCostIfRegistered">1</data>
      <data key="LatencyCostIfRegistered">1</data>
      <data key="RegisterCostIfRegistered">35</data>
      <data key="IsRegistered">False</data>
      <data key="IsInputTerminal">True</data>
      <data key="IsOutputTerminal">False</data>
      <data key="DisallowRegister">False</data>
      <data key="NodeType">4</data>
    </node>
    <node id="n60" parse.indegree="1" parse.outdegree="1">
      <data key="VertexId">60</data>
      <data key="NodeUniqueId">120</data>
      <data key="ThroughputCostIfRegistered">0</data>
      <data key="LatencyCostIfRegistered">1</data>
      <data key="RegisterCostIfRegistered">16</data>
      <data key="IsRegistered">False</data>
      <data key="IsInputTerminal">True</data>
      <data key="IsOutputTerminal">False</data>
      <data key="DisallowRegister">False</data>
      <data key="NodeType">4</data>
    </node>
    <node id="n61" parse.indegree="2" parse.outdegree="1">
      <data key="VertexId">61</data>
      <data key="NodeUniqueId">120</data>
      <data key="ThroughputCostIfRegistered">1</data>
      <data key="LatencyCostIfRegistered">1</data>
      <data key="RegisterCostIfRegistered">16</data>
      <data key="IsRegistered">False</data>
      <data key="IsInputTerminal">False</data>
      <data key="IsOutputTerminal">False</data>
      <data key="DisallowRegister">False</data>
      <data key="NodeType">4</data>
    </node>
    <node id="n62" parse.indegree="1" parse.outdegree="1">
      <data key="VertexId">62</data>
      <data key="NodeUniqueId">135</data>
      <data key="ThroughputCostIfRegistered">1</data>
      <data key="LatencyCostIfRegistered">1</data>
      <data key="RegisterCostIfRegistered">35</data>
      <data key="IsRegistered">False</data>
      <data key="IsInputTerminal">True</data>
      <data key="IsOutputTerminal">False</data>
      <data key="DisallowRegister">False</data>
      <data key="NodeType">4</data>
    </node>
    <node id="n63" parse.indegree="1" parse.outdegree="1">
      <data key="VertexId">63</data>
      <data key="NodeUniqueId">135</data>
      <data key="ThroughputCostIfRegistered">0</data>
      <data key="LatencyCostIfRegistered">1</data>
      <data key="RegisterCostIfRegistered">16</data>
      <data key="IsRegistered">False</data>
      <data key="IsInputTerminal">True</data>
      <data key="IsOutputTerminal">False</data>
      <data key="DisallowRegister">False</data>
      <data key="NodeType">4</data>
    </node>
    <node id="n64" parse.indegree="2" parse.outdegree="1">
      <data key="VertexId">64</data>
      <data key="NodeUniqueId">135</data>
      <data key="ThroughputCostIfRegistered">1</data>
      <data key="LatencyCostIfRegistered">1</data>
      <data key="RegisterCostIfRegistered">16</data>
      <data key="IsRegistered">False</data>
      <data key="IsInputTerminal">False</data>
      <data key="IsOutputTerminal">False</data>
      <data key="DisallowRegister">False</data>
      <data key="NodeType">4</data>
    </node>
    <node id="n65" parse.indegree="1" parse.outdegree="1">
      <data key="VertexId">65</data>
      <data key="NodeUniqueId">149</data>
      <data key="ThroughputCostIfRegistered">0</data>
      <data key="LatencyCostIfRegistered">1</data>
      <data key="RegisterCostIfRegistered">16</data>
      <data key="IsRegistered">False</data>
      <data key="IsInputTerminal">True</data>
      <data key="IsOutputTerminal">False</data>
      <data key="DisallowRegister">False</data>
      <data key="NodeType">4</data>
    </node>
    <node id="n66" parse.indegree="1" parse.outdegree="1">
      <data key="VertexId">66</data>
      <data key="NodeUniqueId">149</data>
      <data key="ThroughputCostIfRegistered">0</data>
      <data key="LatencyCostIfRegistered">1</data>
      <data key="RegisterCostIfRegistered">18</data>
      <data key="IsRegistered">False</data>
      <data key="IsInputTerminal">True</data>
      <data key="IsOutputTerminal">False</data>
      <data key="DisallowRegister">False</data>
      <data key="NodeType">4</data>
    </node>
    <node id="n67" parse.indegree="2" parse.outdegree="1">
      <data key="VertexId">67</data>
      <data key="NodeUniqueId">149</data>
      <data key="ThroughputCostIfRegistered">0</data>
      <data key="LatencyCostIfRegistered">1</data>
      <data key="RegisterCostIfRegistered">18</data>
      <data key="IsRegistered">False</data>
      <data key="IsInputTerminal">False</data>
      <data key="IsOutputTerminal">False</data>
      <data key="DisallowRegister">False</data>
      <data key="NodeType">4</data>
    </node>
    <node id="n68" parse.indegree="1" parse.outdegree="1">
      <data key="VertexId">68</data>
      <data key="NodeUniqueId">115</data>
      <data key="ThroughputCostIfRegistered">1</data>
      <data key="LatencyCostIfRegistered">1</data>
      <data key="RegisterCostIfRegistered">16</data>
      <data key="IsRegistered">False</data>
      <data key="IsInputTerminal">True</data>
      <data key="IsOutputTerminal">False</data>
      <data key="DisallowRegister">False</data>
      <data key="NodeType">4</data>
    </node>
    <node id="n69" parse.indegree="1" parse.outdegree="1">
      <data key="VertexId">69</data>
      <data key="NodeUniqueId">115</data>
      <data key="ThroughputCostIfRegistered">0</data>
      <data key="LatencyCostIfRegistered">1</data>
      <data key="RegisterCostIfRegistered">17</data>
      <data key="IsRegistered">False</data>
      <data key="IsInputTerminal">True</data>
      <data key="IsOutputTerminal">False</data>
      <data key="DisallowRegister">False</data>
      <data key="NodeType">4</data>
    </node>
    <node id="n70" parse.indegree="2" parse.outdegree="1">
      <data key="VertexId">70</data>
      <data key="NodeUniqueId">115</data>
      <data key="ThroughputCostIfRegistered">1</data>
      <data key="LatencyCostIfRegistered">1</data>
      <data key="RegisterCostIfRegistered">17</data>
      <data key="IsRegistered">False</data>
      <data key="IsInputTerminal">False</data>
      <data key="IsOutputTerminal">False</data>
      <data key="DisallowRegister">False</data>
      <data key="NodeType">4</data>
    </node>
    <node id="n71" parse.indegree="1" parse.outdegree="1">
      <data key="VertexId">71</data>
      <data key="NodeUniqueId">158</data>
      <data key="ThroughputCostIfRegistered">0</data>
      <data key="LatencyCostIfRegistered">1</data>
      <data key="RegisterCostIfRegistered">16</data>
      <data key="IsRegistered">False</data>
      <data key="IsInputTerminal">True</data>
      <data key="IsOutputTerminal">False</data>
      <data key="DisallowRegister">False</data>
      <data key="NodeType">4</data>
    </node>
    <node id="n72" parse.indegree="1" parse.outdegree="1">
      <data key="VertexId">72</data>
      <data key="NodeUniqueId">158</data>
      <data key="ThroughputCostIfRegistered">0</data>
      <data key="LatencyCostIfRegistered">1</data>
      <data key="RegisterCostIfRegistered">18</data>
      <data key="IsRegistered">False</data>
      <data key="IsInputTerminal">True</data>
      <data key="IsOutputTerminal">False</data>
      <data key="DisallowRegister">False</data>
      <data key="NodeType">4</data>
    </node>
    <node id="n73" parse.indegree="2" parse.outdegree="1">
      <data key="VertexId">73</data>
      <data key="NodeUniqueId">158</data>
      <data key="ThroughputCostIfRegistered">0</data>
      <data key="LatencyCostIfRegistered">1</data>
      <data key="RegisterCostIfRegistered">18</data>
      <data key="IsRegistered">False</data>
      <data key="IsInputTerminal">False</data>
      <data key="IsOutputTerminal">False</data>
      <data key="DisallowRegister">False</data>
      <data key="NodeType">4</data>
    </node>
    <node id="n74" parse.indegree="1" parse.outdegree="1">
      <data key="VertexId">74</data>
      <data key="NodeUniqueId">130</data>
      <data key="ThroughputCostIfRegistered">1</data>
      <data key="LatencyCostIfRegistered">1</data>
      <data key="RegisterCostIfRegistered">16</data>
      <data key="IsRegistered">False</data>
      <data key="IsInputTerminal">True</data>
      <data key="IsOutputTerminal">False</data>
      <data key="DisallowRegister">False</data>
      <data key="NodeType">4</data>
    </node>
    <node id="n75" parse.indegree="1" parse.outdegree="1">
      <data key="VertexId">75</data>
      <data key="NodeUniqueId">130</data>
      <data key="ThroughputCostIfRegistered">1</data>
      <data key="LatencyCostIfRegistered">1</data>
      <data key="RegisterCostIfRegistered">17</data>
      <data key="IsRegistered">False</data>
      <data key="IsInputTerminal">True</data>
      <data key="IsOutputTerminal">False</data>
      <data key="DisallowRegister">False</data>
      <data key="NodeType">4</data>
    </node>
    <node id="n76" parse.indegree="2" parse.outdegree="1">
      <data key="VertexId">76</data>
      <data key="NodeUniqueId">130</data>
      <data key="ThroughputCostIfRegistered">1</data>
      <data key="LatencyCostIfRegistered">1</data>
      <data key="RegisterCostIfRegistered">17</data>
      <data key="IsRegistered">False</data>
      <data key="IsInputTerminal">False</data>
      <data key="IsOutputTerminal">False</data>
      <data key="DisallowRegister">False</data>
      <data key="NodeType">4</data>
    </node>
    <node id="n77" parse.indegree="1" parse.outdegree="1">
      <data key="VertexId">77</data>
      <data key="NodeUniqueId">170</data>
      <data key="ThroughputCostIfRegistered">0</data>
      <data key="LatencyCostIfRegistered">1</data>
      <data key="RegisterCostIfRegistered">16</data>
      <data key="IsRegistered">False</data>
      <data key="IsInputTerminal">True</data>
      <data key="IsOutputTerminal">False</data>
      <data key="DisallowRegister">False</data>
      <data key="NodeType">4</data>
    </node>
    <node id="n78" parse.indegree="1" parse.outdegree="1">
      <data key="VertexId">78</data>
      <data key="NodeUniqueId">170</data>
      <data key="ThroughputCostIfRegistered">0</data>
      <data key="LatencyCostIfRegistered">1</data>
      <data key="RegisterCostIfRegistered">18</data>
      <data key="IsRegistered">False</data>
      <data key="IsInputTerminal">True</data>
      <data key="IsOutputTerminal">False</data>
      <data key="DisallowRegister">False</data>
      <data key="NodeType">4</data>
    </node>
    <node id="n79" parse.indegree="2" parse.outdegree="1">
      <data key="VertexId">79</data>
      <data key="NodeUniqueId">170</data>
      <data key="ThroughputCostIfRegistered">0</data>
      <data key="LatencyCostIfRegistered">1</data>
      <data key="RegisterCostIfRegistered">18</data>
      <data key="IsRegistered">False</data>
      <data key="IsInputTerminal">False</data>
      <data key="IsOutputTerminal">False</data>
      <data key="DisallowRegister">False</data>
      <data key="NodeType">4</data>
    </node>
    <node id="n80" parse.indegree="1" parse.outdegree="1">
      <data key="VertexId">80</data>
      <data key="NodeUniqueId">106</data>
      <data key="ThroughputCostIfRegistered">1</data>
      <data key="LatencyCostIfRegistered">1</data>
      <data key="RegisterCostIfRegistered">17</data>
      <data key="IsRegistered">False</data>
      <data key="IsInputTerminal">True</data>
      <data key="IsOutputTerminal">False</data>
      <data key="DisallowRegister">False</data>
      <data key="NodeType">4</data>
    </node>
    <node id="n81" parse.indegree="1" parse.outdegree="1">
      <data key="VertexId">81</data>
      <data key="NodeUniqueId">106</data>
      <data key="ThroughputCostIfRegistered">0</data>
      <data key="LatencyCostIfRegistered">1</data>
      <data key="RegisterCostIfRegistered">18</data>
      <data key="IsRegistered">False</data>
      <data key="IsInputTerminal">True</data>
      <data key="IsOutputTerminal">False</data>
      <data key="DisallowRegister">False</data>
      <data key="NodeType">4</data>
    </node>
    <node id="n82" parse.indegree="2" parse.outdegree="2">
      <data key="VertexId">82</data>
      <data key="NodeUniqueId">106</data>
      <data key="ThroughputCostIfRegistered">1</data>
      <data key="LatencyCostIfRegistered">1</data>
      <data key="RegisterCostIfRegistered">19</data>
      <data key="IsRegistered">False</data>
      <data key="IsInputTerminal">False</data>
      <data key="IsOutputTerminal">False</data>
      <data key="DisallowRegister">False</data>
      <data key="NodeType">4</data>
    </node>
    <node id="n83" parse.indegree="1" parse.outdegree="1">
      <data key="VertexId">83</data>
      <data key="NodeUniqueId">108</data>
      <data key="ThroughputCostIfRegistered">1</data>
      <data key="LatencyCostIfRegistered">1</data>
      <data key="RegisterCostIfRegistered">19</data>
      <data key="IsRegistered">False</data>
      <data key="IsInputTerminal">True</data>
      <data key="IsOutputTerminal">False</data>
      <data key="DisallowRegister">False</data>
      <data key="NodeType">4</data>
    </node>
    <node id="n84" parse.indegree="1" parse.outdegree="1">
      <data key="VertexId">84</data>
      <data key="NodeUniqueId">108</data>
      <data key="ThroughputCostIfRegistered">1</data>
      <data key="LatencyCostIfRegistered">1</data>
      <data key="RegisterCostIfRegistered">35</data>
      <data key="IsRegistered">False</data>
      <data key="IsInputTerminal">False</data>
      <data key="IsOutputTerminal">False</data>
      <data key="DisallowRegister">False</data>
      <data key="NodeType">4</data>
    </node>
    <node id="n85" parse.indegree="1" parse.outdegree="1">
      <data key="VertexId">85</data>
      <data key="NodeUniqueId">109</data>
      <data key="ThroughputCostIfRegistered">0</data>
      <data key="LatencyCostIfRegistered">1</data>
      <data key="RegisterCostIfRegistered">19</data>
      <data key="IsRegistered">False</data>
      <data key="IsInputTerminal">True</data>
      <data key="IsOutputTerminal">False</data>
      <data key="DisallowRegister">False</data>
      <data key="NodeType">4</data>
    </node>
    <node id="n86" parse.indegree="1" parse.outdegree="1">
      <data key="VertexId">86</data>
      <data key="NodeUniqueId">109</data>
      <data key="ThroughputCostIfRegistered">0</data>
      <data key="LatencyCostIfRegistered">1</data>
      <data key="RegisterCostIfRegistered">16</data>
      <data key="IsRegistered">False</data>
      <data key="IsInputTerminal">False</data>
      <data key="IsOutputTerminal">False</data>
      <data key="DisallowRegister">False</data>
      <data key="NodeType">4</data>
    </node>
    <node id="n87" parse.indegree="1" parse.outdegree="1">
      <data key="VertexId">87</data>
      <data key="NodeUniqueId">112</data>
      <data key="ThroughputCostIfRegistered">1</data>
      <data key="LatencyCostIfRegistered">1</data>
      <data key="RegisterCostIfRegistered">35</data>
      <data key="IsRegistered">False</data>
      <data key="IsInputTerminal">True</data>
      <data key="IsOutputTerminal">False</data>
      <data key="DisallowRegister">True</data>
      <data key="NodeType">0</data>
    </node>
    <node id="n88" parse.indegree="1" parse.outdegree="1">
      <data key="VertexId">88</data>
      <data key="NodeUniqueId">113</data>
      <data key="ThroughputCostIfRegistered">0</data>
      <data key="LatencyCostIfRegistered">1</data>
      <data key="RegisterCostIfRegistered">16</data>
      <data key="IsRegistered">False</data>
      <data key="IsInputTerminal">True</data>
      <data key="IsOutputTerminal">False</data>
      <data key="DisallowRegister">True</data>
      <data key="NodeType">4</data>
    </node>
    <node id="n89" parse.indegree="1" parse.outdegree="0">
      <data key="VertexId">89</data>
      <data key="NodeUniqueId">113</data>
      <data key="ThroughputCostIfRegistered">0</data>
      <data key="LatencyCostIfRegistered">0</data>
      <data key="RegisterCostIfRegistered">0</data>
      <data key="IsRegistered">True</data>
      <data key="IsInputTerminal">False</data>
      <data key="IsOutputTerminal">False</data>
      <data key="DisallowRegister">False</data>
      <data key="NodeType">4</data>
    </node>
    <edge id="e0" source="n3" target="n4">
      <data key="Delay">449</data>
      <data key="IsFeedback">False</data>
    </edge>
    <edge id="e1" source="n5" target="n6">
      <data key="Delay">504</data>
      <data key="IsFeedback">False</data>
    </edge>
    <edge id="e2" source="n7" target="n8">
      <data key="Delay">449</data>
      <data key="IsFeedback">False</data>
    </edge>
    <edge id="e3" source="n17" target="n18">
      <data key="Delay">327</data>
      <data key="IsFeedback">False</data>
    </edge>
    <edge id="e4" source="n0" target="n17">
      <data key="Delay">0</data>
      <data key="IsFeedback">False</data>
    </edge>
    <edge id="e5" source="n19" target="n20">
      <data key="Delay">0</data>
      <data key="IsFeedback">False</data>
    </edge>
    <edge id="e6" source="n19" target="n21">
      <data key="Delay">0</data>
      <data key="IsFeedback">False</data>
    </edge>
    <edge id="e7" source="n19" target="n22">
      <data key="Delay">0</data>
      <data key="IsFeedback">False</data>
    </edge>
    <edge id="e8" source="n4" target="n19">
      <data key="Delay">0</data>
      <data key="IsFeedback">False</data>
    </edge>
    <edge id="e9" source="n23" target="n24">
      <data key="Delay">267</data>
      <data key="IsFeedback">True</data>
    </edge>
    <edge id="e10" source="n6" target="n23">
      <data key="Delay">0</data>
      <data key="IsFeedback">False</data>
    </edge>
    <edge id="e11" source="n25" target="n26">
      <data key="Delay">0</data>
      <data key="IsFeedback">False</data>
    </edge>
    <edge id="e12" source="n25" target="n27">
      <data key="Delay">0</data>
      <data key="IsFeedback">False</data>
    </edge>
    <edge id="e13" source="n8" target="n25">
      <data key="Delay">0</data>
      <data key="IsFeedback">False</data>
    </edge>
    <edge id="e14" source="n28" target="n24">
      <data key="Delay">267</data>
      <data key="IsFeedback">False</data>
    </edge>
    <edge id="e15" source="n14" target="n28">
      <data key="Delay">0</data>
      <data key="IsFeedback">False</data>
    </edge>
    <edge id="e16" source="n29" target="n30">
      <data key="Delay">267</data>
      <data key="IsFeedback">False</data>
    </edge>
    <edge id="e17" source="n15" target="n29">
      <data key="Delay">0</data>
      <data key="IsFeedback">False</data>
    </edge>
    <edge id="e18" source="n31" target="n32">
      <data key="Delay">327</data>
      <data key="IsFeedback">False</data>
    </edge>
    <edge id="e19" source="n16" target="n31">
      <data key="Delay">0</data>
      <data key="IsFeedback">False</data>
    </edge>
    <edge id="e20" source="n33" target="n32">
      <data key="Delay">327</data>
      <data key="IsFeedback">True</data>
    </edge>
    <edge id="e21" source="n18" target="n33">
      <data key="Delay">0</data>
      <data key="IsFeedback">False</data>
    </edge>
    <edge id="e22" source="n34" target="n36">
      <data key="Delay">0</data>
      <data key="IsFeedback">False</data>
    </edge>
    <edge id="e23" source="n35" target="n36">
      <data key="Delay">0</data>
      <data key="IsFeedback">False</data>
    </edge>
    <edge id="e24" source="n20" target="n34">
      <data key="Delay">0</data>
      <data key="IsFeedback">False</data>
    </edge>
    <edge id="e25" source="n11" target="n35">
      <data key="Delay">0</data>
      <data key="IsFeedback">False</data>
    </edge>
    <edge id="e26" source="n37" target="n39">
      <data key="Delay">0</data>
      <data key="IsFeedback">False</data>
    </edge>
    <edge id="e27" source="n38" target="n39">
      <data key="Delay">0</data>
      <data key="IsFeedback">False</data>
    </edge>
    <edge id="e28" source="n21" target="n37">
      <data key="Delay">0</data>
      <data key="IsFeedback">False</data>
    </edge>
    <edge id="e29" source="n12" target="n38">
      <data key="Delay">0</data>
      <data key="IsFeedback">False</data>
    </edge>
    <edge id="e30" source="n40" target="n42">
      <data key="Delay">0</data>
      <data key="IsFeedback">False</data>
    </edge>
    <edge id="e31" source="n41" target="n42">
      <data key="Delay">0</data>
      <data key="IsFeedback">False</data>
    </edge>
    <edge id="e32" source="n22" target="n40">
      <data key="Delay">0</data>
      <data key="IsFeedback">False</data>
    </edge>
    <edge id="e33" source="n13" target="n41">
      <data key="Delay">0</data>
      <data key="IsFeedback">False</data>
    </edge>
    <edge id="e34" source="n43" target="n45">
      <data key="Delay">0</data>
      <data key="IsFeedback">False</data>
    </edge>
    <edge id="e35" source="n44" target="n45">
      <data key="Delay">0</data>
      <data key="IsFeedback">False</data>
    </edge>
    <edge id="e36" source="n26" target="n43">
      <data key="Delay">0</data>
      <data key="IsFeedback">False</data>
    </edge>
    <edge id="e37" source="n9" target="n44">
      <data key="Delay">0</data>
      <data key="IsFeedback">False</data>
    </edge>
    <edge id="e38" source="n46" target="n48">
      <data key="Delay">0</data>
      <data key="IsFeedback">False</data>
    </edge>
    <edge id="e39" source="n47" target="n48">
      <data key="Delay">0</data>
      <data key="IsFeedback">False</data>
    </edge>
    <edge id="e40" source="n27" target="n46">
      <data key="Delay">0</data>
      <data key="IsFeedback">False</data>
    </edge>
    <edge id="e41" source="n10" target="n47">
      <data key="Delay">0</data>
      <data key="IsFeedback">False</data>
    </edge>
    <edge id="e42" source="n49" target="n30">
      <data key="Delay">267</data>
      <data key="IsFeedback">True</data>
    </edge>
    <edge id="e43" source="n24" target="n49">
      <data key="Delay">0</data>
      <data key="IsFeedback">False</data>
    </edge>
    <edge id="e44" source="n50" target="n52">
      <data key="Delay">5446</data>
      <data key="IsFeedback">False</data>
    </edge>
    <edge id="e45" source="n51" target="n52">
      <data key="Delay">5446</data>
      <data key="IsFeedback">False</data>
    </edge>
    <edge id="e46" source="n6" target="n50">
      <data key="Delay">0</data>
      <data key="IsFeedback">False</data>
    </edge>
    <edge id="e47" source="n36" target="n51">
      <data key="Delay">0</data>
      <data key="IsFeedback">False</data>
    </edge>
    <edge id="e48" source="n53" target="n55">
      <data key="Delay">5446</data>
      <data key="IsFeedback">False</data>
    </edge>
    <edge id="e49" source="n54" target="n55">
      <data key="Delay">5446</data>
      <data key="IsFeedback">False</data>
    </edge>
    <edge id="e50" source="n24" target="n53">
      <data key="Delay">0</data>
      <data key="IsFeedback">False</data>
    </edge>
    <edge id="e51" source="n39" target="n54">
      <data key="Delay">0</data>
      <data key="IsFeedback">False</data>
    </edge>
    <edge id="e52" source="n56" target="n58">
      <data key="Delay">5446</data>
      <data key="IsFeedback">False</data>
    </edge>
    <edge id="e53" source="n57" target="n58">
      <data key="Delay">5446</data>
      <data key="IsFeedback">False</data>
    </edge>
    <edge id="e54" source="n30" target="n56">
      <data key="Delay">0</data>
      <data key="IsFeedback">False</data>
    </edge>
    <edge id="e55" source="n42" target="n57">
      <data key="Delay">0</data>
      <data key="IsFeedback">False</data>
    </edge>
    <edge id="e56" source="n59" target="n61">
      <data key="Delay">6615</data>
      <data key="IsFeedback">False</data>
    </edge>
    <edge id="e57" source="n60" target="n61">
      <data key="Delay">6615</data>
      <data key="IsFeedback">False</data>
    </edge>
    <edge id="e58" source="n18" target="n59">
      <data key="Delay">0</data>
      <data key="IsFeedback">False</data>
    </edge>
    <edge id="e59" source="n45" target="n60">
      <data key="Delay">0</data>
      <data key="IsFeedback">False</data>
    </edge>
    <edge id="e60" source="n62" target="n64">
      <data key="Delay">6615</data>
      <data key="IsFeedback">False</data>
    </edge>
    <edge id="e61" source="n63" target="n64">
      <data key="Delay">6615</data>
      <data key="IsFeedback">False</data>
    </edge>
    <edge id="e62" source="n32" target="n62">
      <data key="Delay">0</data>
      <data key="IsFeedback">False</data>
    </edge>
    <edge id="e63" source="n48" target="n63">
      <data key="Delay">0</data>
      <data key="IsFeedback">False</data>
    </edge>
    <edge id="e64" source="n65" target="n67">
      <data key="Delay">1200</data>
      <data key="IsFeedback">False</data>
    </edge>
    <edge id="e65" source="n66" target="n67">
      <data key="Delay">1200</data>
      <data key="IsFeedback">False</data>
    </edge>
    <edge id="e66" source="n52" target="n65">
      <data key="Delay">0</data>
      <data key="IsFeedback">False</data>
    </edge>
    <edge id="e67" source="n2" target="n66">
      <data key="Delay">0</data>
      <data key="IsFeedback">False</data>
    </edge>
    <edge id="e68" source="n68" target="n70">
      <data key="Delay">1200</data>
      <data key="IsFeedback">False</data>
    </edge>
    <edge id="e69" source="n69" target="n70">
      <data key="Delay">1200</data>
      <data key="IsFeedback">False</data>
    </edge>
    <edge id="e70" source="n61" target="n68">
      <data key="Delay">0</data>
      <data key="IsFeedback">False</data>
    </edge>
    <edge id="e71" source="n1" target="n69">
      <data key="Delay">0</data>
      <data key="IsFeedback">False</data>
    </edge>
    <edge id="e72" source="n71" target="n73">
      <data key="Delay">1200</data>
      <data key="IsFeedback">False</data>
    </edge>
    <edge id="e73" source="n72" target="n73">
      <data key="Delay">1200</data>
      <data key="IsFeedback">False</data>
    </edge>
    <edge id="e74" source="n55" target="n71">
      <data key="Delay">0</data>
      <data key="IsFeedback">False</data>
    </edge>
    <edge id="e75" source="n67" target="n72">
      <data key="Delay">0</data>
      <data key="IsFeedback">False</data>
    </edge>
    <edge id="e76" source="n74" target="n76">
      <data key="Delay">1200</data>
      <data key="IsFeedback">False</data>
    </edge>
    <edge id="e77" source="n75" target="n76">
      <data key="Delay">1200</data>
      <data key="IsFeedback">False</data>
    </edge>
    <edge id="e78" source="n64" target="n74">
      <data key="Delay">0</data>
      <data key="IsFeedback">False</data>
    </edge>
    <edge id="e79" source="n70" target="n75">
      <data key="Delay">0</data>
      <data key="IsFeedback">False</data>
    </edge>
    <edge id="e80" source="n77" target="n79">
      <data key="Delay">1200</data>
      <data key="IsFeedback">False</data>
    </edge>
    <edge id="e81" source="n78" target="n79">
      <data key="Delay">1200</data>
      <data key="IsFeedback">False</data>
    </edge>
    <edge id="e82" source="n58" target="n77">
      <data key="Delay">0</data>
      <data key="IsFeedback">False</data>
    </edge>
    <edge id="e83" source="n73" target="n78">
      <data key="Delay">0</data>
      <data key="IsFeedback">False</data>
    </edge>
    <edge id="e84" source="n80" target="n82">
      <data key="Delay">927</data>
      <data key="IsFeedback">False</data>
    </edge>
    <edge id="e85" source="n81" target="n82">
      <data key="Delay">927</data>
      <data key="IsFeedback">False</data>
    </edge>
    <edge id="e86" source="n76" target="n80">
      <data key="Delay">0</data>
      <data key="IsFeedback">False</data>
    </edge>
    <edge id="e87" source="n79" target="n81">
      <data key="Delay">0</data>
      <data key="IsFeedback">False</data>
    </edge>
    <edge id="e88" source="n83" target="n84">
      <data key="Delay">0</data>
      <data key="IsFeedback">False</data>
    </edge>
    <edge id="e89" source="n82" target="n83">
      <data key="Delay">0</data>
      <data key="IsFeedback">False</data>
    </edge>
    <edge id="e90" source="n85" target="n86">
      <data key="Delay">530</data>
      <data key="IsFeedback">False</data>
    </edge>
    <edge id="e91" source="n82" target="n85">
      <data key="Delay">0</data>
      <data key="IsFeedback">False</data>
    </edge>
    <edge id="e92" source="n87" target="n18">
      <data key="Delay">327</data>
      <data key="IsFeedback">True</data>
    </edge>
    <edge id="e93" source="n84" target="n87">
      <data key="Delay">0</data>
      <data key="IsFeedback">False</data>
    </edge>
    <edge id="e94" source="n88" target="n89">
      <data key="Delay">0</data>
      <data key="IsFeedback">False</data>
    </edge>
    <edge id="e95" source="n86" target="n88">
      <data key="Delay">0</data>
      <data key="IsFeedback">False</data>
    </edge>
  </graph>
</graphml>
