<?xml version="1.0" encoding="UTF-8"?>
<!-- This file was generated from the DelayGraph object. -->
<graphml xmlns="http://graphml.graphdrawing.org/xmlns"
            xmlns:xsi="http://www.w3.org/2001/XMLSchema-instance"
            xsi:schemaLocation="http://graphml.graphdrawing.org/xmlns
                                http://graphml.graphdrawing.org/xmlns/1.0/graphml.xsd">
  <key id="VertexId" for="node" attr.name="VertexId" attr.type="int"/>
  <key id="NodeUniqueId" for="node" attr.name="NodeUniqueId" attr.type="int"/>
  <key id="ThroughputCostIfRegistered" for="node" attr.name="ThroughputCostIfRegistered" attr.type="long"/>
  <key id="LatencyCostIfRegistered" for="node" attr.name="LatencyCostIfRegistered" attr.type="long"/>
  <key id="RegisterCostIfRegistered" for="node" attr.name="RegisterCostIfRegistered" attr.type="long"/>
  <key id="IsRegistered" for="node" attr.name="IsRegistered" attr.type="boolean"/>
  <key id="IsInputTerminal" for="node" attr.name="IsInputTerminal" attr.type="boolean"/>
  <key id="IsOutputTerminal" for="node" attr.name="IsOutputTerminal" attr.type="boolean"/>
  <key id="DisallowRegister" for="node" attr.name="DisallowRegister" attr.type="boolean"/>
  <key id="NodeType" for="node" attr.name="NodeType" attr.type="int"/>
  <key id="Delay" for="edge" attr.name="Delay" attr.type="int"/>
  <key id="IsFeedback" for="edge" attr.name="IsFeedback" attr.type="boolean"/>
  <graph id="G" edgedefault="directed"
          parse.nodes="61" parse.edges="69"
          parse.nodeids="canonical" parse.edgeids="canonical"
          parse.order="nodesfirst">
    <node id="n0" parse.indegree="0" parse.outdegree="1">
      <data key="VertexId">0</data>
      <data key="NodeUniqueId">23</data>
      <data key="ThroughputCostIfRegistered">0</data>
      <data key="LatencyCostIfRegistered">1</data>
      <data key="RegisterCostIfRegistered">16</data>
      <data key="IsRegistered">False</data>
      <data key="IsInputTerminal">False</data>
      <data key="IsOutputTerminal">False</data>
      <data key="DisallowRegister">False</data>
      <data key="NodeType">4</data>
    </node>
    <node id="n1" parse.indegree="0" parse.outdegree="1">
      <data key="VertexId">1</data>
      <data key="NodeUniqueId">19</data>
      <data key="ThroughputCostIfRegistered">0</data>
      <data key="LatencyCostIfRegistered">1</data>
      <data key="RegisterCostIfRegistered">18</data>
      <data key="IsRegistered">False</data>
      <data key="IsInputTerminal">False</data>
      <data key="IsOutputTerminal">False</data>
      <data key="DisallowRegister">False</data>
      <data key="NodeType">4</data>
    </node>
    <node id="n2" parse.indegree="0" parse.outdegree="1">
      <data key="VertexId">2</data>
      <data key="NodeUniqueId">11</data>
      <data key="ThroughputCostIfRegistered">0</data>
      <data key="LatencyCostIfRegistered">1</data>
      <data key="RegisterCostIfRegistered">32</data>
      <data key="IsRegistered">False</data>
      <data key="IsInputTerminal">False</data>
      <data key="IsOutputTerminal">False</data>
      <data key="DisallowRegister">False</data>
      <data key="NodeType">4</data>
    </node>
    <node id="n3" parse.indegree="0" parse.outdegree="1">
      <data key="VertexId">3</data>
      <data key="NodeUniqueId">5</data>
      <data key="ThroughputCostIfRegistered">0</data>
      <data key="LatencyCostIfRegistered">0</data>
      <data key="RegisterCostIfRegistered">0</data>
      <data key="IsRegistered">True</data>
      <data key="IsInputTerminal">False</data>
      <data key="IsOutputTerminal">False</data>
      <data key="DisallowRegister">False</data>
      <data key="NodeType">4</data>
    </node>
    <node id="n4" parse.indegree="1" parse.outdegree="1">
      <data key="VertexId">4</data>
      <data key="NodeUniqueId">5</data>
      <data key="ThroughputCostIfRegistered">0</data>
      <data key="LatencyCostIfRegistered">1</data>
      <data key="RegisterCostIfRegistered">16</data>
      <data key="IsRegistered">False</data>
      <data key="IsInputTerminal">False</data>
      <data key="IsOutputTerminal">False</data>
      <data key="DisallowRegister">True</data>
      <data key="NodeType">4</data>
    </node>
    <node id="n5" parse.indegree="1" parse.outdegree="1">
      <data key="VertexId">5</data>
      <data key="NodeUniqueId">13</data>
      <data key="ThroughputCostIfRegistered">0</data>
      <data key="LatencyCostIfRegistered">1</data>
      <data key="RegisterCostIfRegistered">16</data>
      <data key="IsRegistered">False</data>
      <data key="IsInputTerminal">True</data>
      <data key="IsOutputTerminal">False</data>
      <data key="DisallowRegister">False</data>
      <data key="NodeType">4</data>
    </node>
    <node id="n6" parse.indegree="1" parse.outdegree="1">
      <data key="VertexId">6</data>
      <data key="NodeUniqueId">13</data>
      <data key="ThroughputCostIfRegistered">0</data>
      <data key="LatencyCostIfRegistered">1</data>
      <data key="RegisterCostIfRegistered">17</data>
      <data key="IsRegistered">False</data>
      <data key="IsInputTerminal">False</data>
      <data key="IsOutputTerminal">False</data>
      <data key="DisallowRegister">False</data>
      <data key="NodeType">4</data>
    </node>
    <node id="n7" parse.indegree="0" parse.outdegree="0">
      <data key="VertexId">7</data>
      <data key="NodeUniqueId">9</data>
      <data key="ThroughputCostIfRegistered">0</data>
      <data key="LatencyCostIfRegistered">1</data>
      <data key="RegisterCostIfRegistered">0</data>
      <data key="IsRegistered">False</data>
      <data key="IsInputTerminal">False</data>
      <data key="IsOutputTerminal">False</data>
      <data key="DisallowRegister">True</data>
      <data key="NodeType">4</data>
    </node>
    <node id="n8" parse.indegree="1" parse.outdegree="0">
      <data key="VertexId">8</data>
      <data key="NodeUniqueId">10</data>
      <data key="ThroughputCostIfRegistered">0</data>
      <data key="LatencyCostIfRegistered">1</data>
      <data key="RegisterCostIfRegistered">32</data>
      <data key="IsRegistered">False</data>
      <data key="IsInputTerminal">True</data>
      <data key="IsOutputTerminal">False</data>
      <data key="DisallowRegister">True</data>
      <data key="NodeType">4</data>
    </node>
    <node id="n9" parse.indegree="1" parse.outdegree="1">
      <data key="VertexId">9</data>
      <data key="NodeUniqueId">16</data>
      <data key="ThroughputCostIfRegistered">0</data>
      <data key="LatencyCostIfRegistered">1</data>
      <data key="RegisterCostIfRegistered">17</data>
      <data key="IsRegistered">False</data>
      <data key="IsInputTerminal">True</data>
      <data key="IsOutputTerminal">False</data>
      <data key="DisallowRegister">True</data>
      <data key="NodeType">2</data>
    </node>
    <node id="n10" parse.indegree="2" parse.outdegree="1">
      <data key="VertexId">10</data>
      <data key="NodeUniqueId">16</data>
      <data key="ThroughputCostIfRegistered">17</data>
      <data key="LatencyCostIfRegistered">17</data>
      <data key="RegisterCostIfRegistered">17</data>
      <data key="IsRegistered">False</data>
      <data key="IsInputTerminal">False</data>
      <data key="IsOutputTerminal">False</data>
      <data key="DisallowRegister">True</data>
      <data key="NodeType">2</data>
    </node>
    <node id="n11" parse.indegree="1" parse.outdegree="1">
      <data key="VertexId">11</data>
      <data key="NodeUniqueId">17</data>
      <data key="ThroughputCostIfRegistered">16</data>
      <data key="LatencyCostIfRegistered">16</data>
      <data key="RegisterCostIfRegistered">0</data>
      <data key="IsRegistered">False</data>
      <data key="IsInputTerminal">False</data>
      <data key="IsOutputTerminal">False</data>
      <data key="DisallowRegister">False</data>
      <data key="NodeType">3</data>
    </node>
    <node id="n12" parse.indegree="1" parse.outdegree="1">
      <data key="VertexId">12</data>
      <data key="NodeUniqueId">20</data>
      <data key="ThroughputCostIfRegistered">0</data>
      <data key="LatencyCostIfRegistered">1</data>
      <data key="RegisterCostIfRegistered">18</data>
      <data key="IsRegistered">False</data>
      <data key="IsInputTerminal">True</data>
      <data key="IsOutputTerminal">False</data>
      <data key="DisallowRegister">True</data>
      <data key="NodeType">2</data>
    </node>
    <node id="n13" parse.indegree="2" parse.outdegree="1">
      <data key="VertexId">13</data>
      <data key="NodeUniqueId">20</data>
      <data key="ThroughputCostIfRegistered">17</data>
      <data key="LatencyCostIfRegistered">17</data>
      <data key="RegisterCostIfRegistered">18</data>
      <data key="IsRegistered">False</data>
      <data key="IsInputTerminal">False</data>
      <data key="IsOutputTerminal">False</data>
      <data key="DisallowRegister">True</data>
      <data key="NodeType">2</data>
    </node>
    <node id="n14" parse.indegree="1" parse.outdegree="1">
      <data key="VertexId">14</data>
      <data key="NodeUniqueId">21</data>
      <data key="ThroughputCostIfRegistered">16</data>
      <data key="LatencyCostIfRegistered">16</data>
      <data key="RegisterCostIfRegistered">0</data>
      <data key="IsRegistered">False</data>
      <data key="IsInputTerminal">False</data>
      <data key="IsOutputTerminal">False</data>
      <data key="DisallowRegister">False</data>
      <data key="NodeType">3</data>
    </node>
    <node id="n15" parse.indegree="1" parse.outdegree="1">
      <data key="VertexId">15</data>
      <data key="NodeUniqueId">24</data>
      <data key="ThroughputCostIfRegistered">0</data>
      <data key="LatencyCostIfRegistered">1</data>
      <data key="RegisterCostIfRegistered">16</data>
      <data key="IsRegistered">False</data>
      <data key="IsInputTerminal">True</data>
      <data key="IsOutputTerminal">False</data>
      <data key="DisallowRegister">True</data>
      <data key="NodeType">2</data>
    </node>
    <node id="n16" parse.indegree="2" parse.outdegree="2">
      <data key="VertexId">16</data>
      <data key="NodeUniqueId">24</data>
      <data key="ThroughputCostIfRegistered">17</data>
      <data key="LatencyCostIfRegistered">17</data>
      <data key="RegisterCostIfRegistered">16</data>
      <data key="IsRegistered">False</data>
      <data key="IsInputTerminal">False</data>
      <data key="IsOutputTerminal">False</data>
      <data key="DisallowRegister">True</data>
      <data key="NodeType">2</data>
    </node>
    <node id="n17" parse.indegree="1" parse.outdegree="2">
      <data key="VertexId">17</data>
      <data key="NodeUniqueId">25</data>
      <data key="ThroughputCostIfRegistered">16</data>
      <data key="LatencyCostIfRegistered">16</data>
      <data key="RegisterCostIfRegistered">16</data>
      <data key="IsRegistered">False</data>
      <data key="IsInputTerminal">False</data>
      <data key="IsOutputTerminal">False</data>
      <data key="DisallowRegister">False</data>
      <data key="NodeType">3</data>
    </node>
    <node id="n18" parse.indegree="0" parse.outdegree="1">
      <data key="VertexId">18</data>
      <data key="NodeUniqueId">48</data>
      <data key="ThroughputCostIfRegistered">0</data>
      <data key="LatencyCostIfRegistered">16</data>
      <data key="RegisterCostIfRegistered">1</data>
      <data key="IsRegistered">False</data>
      <data key="IsInputTerminal">False</data>
      <data key="IsOutputTerminal">False</data>
      <data key="DisallowRegister">False</data>
      <data key="NodeType">4</data>
    </node>
    <node id="n19" parse.indegree="0" parse.outdegree="3">
      <data key="VertexId">19</data>
      <data key="NodeUniqueId">29</data>
      <data key="ThroughputCostIfRegistered">0</data>
      <data key="LatencyCostIfRegistered">16</data>
      <data key="RegisterCostIfRegistered">1</data>
      <data key="IsRegistered">False</data>
      <data key="IsInputTerminal">False</data>
      <data key="IsOutputTerminal">False</data>
      <data key="DisallowRegister">False</data>
      <data key="NodeType">4</data>
    </node>
    <node id="n20" parse.indegree="1" parse.outdegree="1">
      <data key="VertexId">20</data>
      <data key="NodeUniqueId">40</data>
      <data key="ThroughputCostIfRegistered">16</data>
      <data key="LatencyCostIfRegistered">16</data>
      <data key="RegisterCostIfRegistered">16</data>
      <data key="IsRegistered">False</data>
      <data key="IsInputTerminal">True</data>
      <data key="IsOutputTerminal">False</data>
      <data key="DisallowRegister">False</data>
      <data key="NodeType">4</data>
    </node>
    <node id="n21" parse.indegree="1" parse.outdegree="1">
      <data key="VertexId">21</data>
      <data key="NodeUniqueId">40</data>
      <data key="ThroughputCostIfRegistered">16</data>
      <data key="LatencyCostIfRegistered">16</data>
      <data key="RegisterCostIfRegistered">18</data>
      <data key="IsRegistered">False</data>
      <data key="IsInputTerminal">False</data>
      <data key="IsOutputTerminal">False</data>
      <data key="DisallowRegister">False</data>
      <data key="NodeType">4</data>
    </node>
    <node id="n22" parse.indegree="1" parse.outdegree="2">
      <data key="VertexId">22</data>
      <data key="NodeUniqueId">27</data>
      <data key="ThroughputCostIfRegistered">16</data>
      <data key="LatencyCostIfRegistered">16</data>
      <data key="RegisterCostIfRegistered">17</data>
      <data key="IsRegistered">False</data>
      <data key="IsInputTerminal">True</data>
      <data key="IsOutputTerminal">False</data>
      <data key="DisallowRegister">False</data>
      <data key="NodeType">4</data>
    </node>
    <node id="n23" parse.indegree="1" parse.outdegree="2">
      <data key="VertexId">23</data>
      <data key="NodeUniqueId">27</data>
      <data key="ThroughputCostIfRegistered">0</data>
      <data key="LatencyCostIfRegistered">16</data>
      <data key="RegisterCostIfRegistered">1</data>
      <data key="IsRegistered">False</data>
      <data key="IsInputTerminal">True</data>
      <data key="IsOutputTerminal">False</data>
      <data key="DisallowRegister">False</data>
      <data key="NodeType">4</data>
    </node>
    <node id="n24" parse.indegree="2" parse.outdegree="1">
      <data key="VertexId">24</data>
      <data key="NodeUniqueId">27</data>
      <data key="ThroughputCostIfRegistered">16</data>
      <data key="LatencyCostIfRegistered">16</data>
      <data key="RegisterCostIfRegistered">17</data>
      <data key="IsRegistered">False</data>
      <data key="IsInputTerminal">False</data>
      <data key="IsOutputTerminal">False</data>
      <data key="DisallowRegister">False</data>
      <data key="NodeType">4</data>
    </node>
    <node id="n25" parse.indegree="2" parse.outdegree="1">
      <data key="VertexId">25</data>
      <data key="NodeUniqueId">27</data>
      <data key="ThroughputCostIfRegistered">0</data>
      <data key="LatencyCostIfRegistered">16</data>
      <data key="RegisterCostIfRegistered">1</data>
      <data key="IsRegistered">False</data>
      <data key="IsInputTerminal">False</data>
      <data key="IsOutputTerminal">False</data>
      <data key="DisallowRegister">False</data>
      <data key="NodeType">4</data>
    </node>
    <node id="n26" parse.indegree="1" parse.outdegree="1">
      <data key="VertexId">26</data>
      <data key="NodeUniqueId">44</data>
      <data key="ThroughputCostIfRegistered">16</data>
      <data key="LatencyCostIfRegistered">16</data>
      <data key="RegisterCostIfRegistered">18</data>
      <data key="IsRegistered">False</data>
      <data key="IsInputTerminal">True</data>
      <data key="IsOutputTerminal">False</data>
      <data key="DisallowRegister">False</data>
      <data key="NodeType">4</data>
    </node>
    <node id="n27" parse.indegree="1" parse.outdegree="1">
      <data key="VertexId">27</data>
      <data key="NodeUniqueId">44</data>
      <data key="ThroughputCostIfRegistered">0</data>
      <data key="LatencyCostIfRegistered">16</data>
      <data key="RegisterCostIfRegistered">1</data>
      <data key="IsRegistered">False</data>
      <data key="IsInputTerminal">True</data>
      <data key="IsOutputTerminal">False</data>
      <data key="DisallowRegister">False</data>
      <data key="NodeType">4</data>
    </node>
    <node id="n28" parse.indegree="2" parse.outdegree="1">
      <data key="VertexId">28</data>
      <data key="NodeUniqueId">44</data>
      <data key="ThroughputCostIfRegistered">16</data>
      <data key="LatencyCostIfRegistered">16</data>
      <data key="RegisterCostIfRegistered">18</data>
      <data key="IsRegistered">False</data>
      <data key="IsInputTerminal">False</data>
      <data key="IsOutputTerminal">False</data>
      <data key="DisallowRegister">False</data>
      <data key="NodeType">4</data>
    </node>
    <node id="n29" parse.indegree="1" parse.outdegree="2">
      <data key="VertexId">29</data>
      <data key="NodeUniqueId">28</data>
      <data key="ThroughputCostIfRegistered">16</data>
      <data key="LatencyCostIfRegistered">16</data>
      <data key="RegisterCostIfRegistered">17</data>
      <data key="IsRegistered">False</data>
      <data key="IsInputTerminal">True</data>
      <data key="IsOutputTerminal">False</data>
      <data key="DisallowRegister">False</data>
      <data key="NodeType">4</data>
    </node>
    <node id="n30" parse.indegree="1" parse.outdegree="2">
      <data key="VertexId">30</data>
      <data key="NodeUniqueId">28</data>
      <data key="ThroughputCostIfRegistered">0</data>
      <data key="LatencyCostIfRegistered">16</data>
      <data key="RegisterCostIfRegistered">1</data>
      <data key="IsRegistered">False</data>
      <data key="IsInputTerminal">True</data>
      <data key="IsOutputTerminal">False</data>
      <data key="DisallowRegister">False</data>
      <data key="NodeType">4</data>
    </node>
    <node id="n31" parse.indegree="2" parse.outdegree="1">
      <data key="VertexId">31</data>
      <data key="NodeUniqueId">28</data>
      <data key="ThroughputCostIfRegistered">16</data>
      <data key="LatencyCostIfRegistered">16</data>
      <data key="RegisterCostIfRegistered">17</data>
      <data key="IsRegistered">False</data>
      <data key="IsInputTerminal">False</data>
      <data key="IsOutputTerminal">False</data>
      <data key="DisallowRegister">False</data>
      <data key="NodeType">4</data>
    </node>
    <node id="n32" parse.indegree="2" parse.outdegree="1">
      <data key="VertexId">32</data>
      <data key="NodeUniqueId">28</data>
      <data key="ThroughputCostIfRegistered">0</data>
      <data key="LatencyCostIfRegistered">16</data>
      <data key="RegisterCostIfRegistered">1</data>
      <data key="IsRegistered">False</data>
      <data key="IsInputTerminal">False</data>
      <data key="IsOutputTerminal">False</data>
      <data key="DisallowRegister">False</data>
      <data key="NodeType">4</data>
    </node>
    <node id="n33" parse.indegree="1" parse.outdegree="1">
      <data key="VertexId">33</data>
      <data key="NodeUniqueId">34</data>
      <data key="ThroughputCostIfRegistered">16</data>
      <data key="LatencyCostIfRegistered">16</data>
      <data key="RegisterCostIfRegistered">18</data>
      <data key="IsRegistered">False</data>
      <data key="IsInputTerminal">True</data>
      <data key="IsOutputTerminal">False</data>
      <data key="DisallowRegister">False</data>
      <data key="NodeType">4</data>
    </node>
    <node id="n34" parse.indegree="1" parse.outdegree="1">
      <data key="VertexId">34</data>
      <data key="NodeUniqueId">34</data>
      <data key="ThroughputCostIfRegistered">0</data>
      <data key="LatencyCostIfRegistered">16</data>
      <data key="RegisterCostIfRegistered">1</data>
      <data key="IsRegistered">False</data>
      <data key="IsInputTerminal">True</data>
      <data key="IsOutputTerminal">False</data>
      <data key="DisallowRegister">False</data>
      <data key="NodeType">4</data>
    </node>
    <node id="n35" parse.indegree="2" parse.outdegree="1">
      <data key="VertexId">35</data>
      <data key="NodeUniqueId">34</data>
      <data key="ThroughputCostIfRegistered">16</data>
      <data key="LatencyCostIfRegistered">16</data>
      <data key="RegisterCostIfRegistered">18</data>
      <data key="IsRegistered">False</data>
      <data key="IsInputTerminal">False</data>
      <data key="IsOutputTerminal">False</data>
      <data key="DisallowRegister">False</data>
      <data key="NodeType">4</data>
    </node>
    <node id="n36" parse.indegree="1" parse.outdegree="1">
      <data key="VertexId">36</data>
      <data key="NodeUniqueId">46</data>
      <data key="ThroughputCostIfRegistered">16</data>
      <data key="LatencyCostIfRegistered">16</data>
      <data key="RegisterCostIfRegistered">18</data>
      <data key="IsRegistered">False</data>
      <data key="IsInputTerminal">True</data>
      <data key="IsOutputTerminal">False</data>
      <data key="DisallowRegister">False</data>
      <data key="NodeType">4</data>
    </node>
    <node id="n37" parse.indegree="1" parse.outdegree="1">
      <data key="VertexId">37</data>
      <data key="NodeUniqueId">46</data>
      <data key="ThroughputCostIfRegistered">0</data>
      <data key="LatencyCostIfRegistered">16</data>
      <data key="RegisterCostIfRegistered">1</data>
      <data key="IsRegistered">False</data>
      <data key="IsInputTerminal">True</data>
      <data key="IsOutputTerminal">False</data>
      <data key="DisallowRegister">False</data>
      <data key="NodeType">4</data>
    </node>
    <node id="n38" parse.indegree="2" parse.outdegree="1">
      <data key="VertexId">38</data>
      <data key="NodeUniqueId">46</data>
      <data key="ThroughputCostIfRegistered">16</data>
      <data key="LatencyCostIfRegistered">16</data>
      <data key="RegisterCostIfRegistered">18</data>
      <data key="IsRegistered">False</data>
      <data key="IsInputTerminal">False</data>
      <data key="IsOutputTerminal">False</data>
      <data key="DisallowRegister">False</data>
      <data key="NodeType">4</data>
    </node>
    <node id="n39" parse.indegree="1" parse.outdegree="1">
      <data key="VertexId">39</data>
      <data key="NodeUniqueId">35</data>
      <data key="ThroughputCostIfRegistered">16</data>
      <data key="LatencyCostIfRegistered">16</data>
      <data key="RegisterCostIfRegistered">18</data>
      <data key="IsRegistered">False</data>
      <data key="IsInputTerminal">True</data>
      <data key="IsOutputTerminal">False</data>
      <data key="DisallowRegister">False</data>
      <data key="NodeType">4</data>
    </node>
    <node id="n40" parse.indegree="1" parse.outdegree="1">
      <data key="VertexId">40</data>
      <data key="NodeUniqueId">35</data>
      <data key="ThroughputCostIfRegistered">0</data>
      <data key="LatencyCostIfRegistered">16</data>
      <data key="RegisterCostIfRegistered">1</data>
      <data key="IsRegistered">False</data>
      <data key="IsInputTerminal">True</data>
      <data key="IsOutputTerminal">False</data>
      <data key="DisallowRegister">False</data>
      <data key="NodeType">4</data>
    </node>
    <node id="n41" parse.indegree="2" parse.outdegree="2">
      <data key="VertexId">41</data>
      <data key="NodeUniqueId">35</data>
      <data key="ThroughputCostIfRegistered">16</data>
      <data key="LatencyCostIfRegistered">16</data>
      <data key="RegisterCostIfRegistered">18</data>
      <data key="IsRegistered">False</data>
      <data key="IsInputTerminal">False</data>
      <data key="IsOutputTerminal">False</data>
      <data key="DisallowRegister">False</data>
      <data key="NodeType">4</data>
    </node>
    <node id="n42" parse.indegree="1" parse.outdegree="1">
      <data key="VertexId">42</data>
      <data key="NodeUniqueId">50</data>
      <data key="ThroughputCostIfRegistered">16</data>
      <data key="LatencyCostIfRegistered">16</data>
      <data key="RegisterCostIfRegistered">18</data>
      <data key="IsRegistered">False</data>
      <data key="IsInputTerminal">True</data>
      <data key="IsOutputTerminal">False</data>
      <data key="DisallowRegister">False</data>
      <data key="NodeType">4</data>
    </node>
    <node id="n43" parse.indegree="1" parse.outdegree="1">
      <data key="VertexId">43</data>
      <data key="NodeUniqueId">50</data>
      <data key="ThroughputCostIfRegistered">16</data>
      <data key="LatencyCostIfRegistered">16</data>
      <data key="RegisterCostIfRegistered">18</data>
      <data key="IsRegistered">False</data>
      <data key="IsInputTerminal">True</data>
      <data key="IsOutputTerminal">False</data>
      <data key="DisallowRegister">False</data>
      <data key="NodeType">4</data>
    </node>
    <node id="n44" parse.indegree="2" parse.outdegree="2">
      <data key="VertexId">44</data>
      <data key="NodeUniqueId">50</data>
      <data key="ThroughputCostIfRegistered">16</data>
      <data key="LatencyCostIfRegistered">16</data>
      <data key="RegisterCostIfRegistered">19</data>
      <data key="IsRegistered">False</data>
      <data key="IsInputTerminal">False</data>
      <data key="IsOutputTerminal">False</data>
      <data key="DisallowRegister">False</data>
      <data key="NodeType">4</data>
    </node>
    <node id="n45" parse.indegree="1" parse.outdegree="1">
      <data key="VertexId">45</data>
      <data key="NodeUniqueId">53</data>
      <data key="ThroughputCostIfRegistered">16</data>
      <data key="LatencyCostIfRegistered">16</data>
      <data key="RegisterCostIfRegistered">19</data>
      <data key="IsRegistered">False</data>
      <data key="IsInputTerminal">True</data>
      <data key="IsOutputTerminal">False</data>
      <data key="DisallowRegister">False</data>
      <data key="NodeType">4</data>
    </node>
    <node id="n46" parse.indegree="1" parse.outdegree="1">
      <data key="VertexId">46</data>
      <data key="NodeUniqueId">53</data>
      <data key="ThroughputCostIfRegistered">16</data>
      <data key="LatencyCostIfRegistered">16</data>
      <data key="RegisterCostIfRegistered">18</data>
      <data key="IsRegistered">False</data>
      <data key="IsInputTerminal">False</data>
      <data key="IsOutputTerminal">False</data>
      <data key="DisallowRegister">False</data>
      <data key="NodeType">4</data>
    </node>
    <node id="n47" parse.indegree="1" parse.outdegree="1">
      <data key="VertexId">47</data>
      <data key="NodeUniqueId">55</data>
      <data key="ThroughputCostIfRegistered">16</data>
      <data key="LatencyCostIfRegistered">16</data>
      <data key="RegisterCostIfRegistered">19</data>
      <data key="IsRegistered">False</data>
      <data key="IsInputTerminal">True</data>
      <data key="IsOutputTerminal">False</data>
      <data key="DisallowRegister">False</data>
      <data key="NodeType">4</data>
    </node>
    <node id="n48" parse.indegree="1" parse.outdegree="2">
      <data key="VertexId">48</data>
      <data key="NodeUniqueId">55</data>
      <data key="ThroughputCostIfRegistered">16</data>
      <data key="LatencyCostIfRegistered">16</data>
      <data key="RegisterCostIfRegistered">1</data>
      <data key="IsRegistered">False</data>
      <data key="IsInputTerminal">False</data>
      <data key="IsOutputTerminal">False</data>
      <data key="DisallowRegister">False</data>
      <data key="NodeType">4</data>
    </node>
    <node id="n49" parse.indegree="1" parse.outdegree="1">
      <data key="VertexId">49</data>
      <data key="NodeUniqueId">56</data>
      <data key="ThroughputCostIfRegistered">16</data>
      <data key="LatencyCostIfRegistered">16</data>
      <data key="RegisterCostIfRegistered">18</data>
      <data key="IsRegistered">False</data>
      <data key="IsInputTerminal">True</data>
      <data key="IsOutputTerminal">False</data>
      <data key="DisallowRegister">False</data>
      <data key="NodeType">4</data>
    </node>
    <node id="n50" parse.indegree="1" parse.outdegree="1">
      <data key="VertexId">50</data>
      <data key="NodeUniqueId">56</data>
      <data key="ThroughputCostIfRegistered">16</data>
      <data key="LatencyCostIfRegistered">16</data>
      <data key="RegisterCostIfRegistered">1</data>
      <data key="IsRegistered">False</data>
      <data key="IsInputTerminal">True</data>
      <data key="IsOutputTerminal">False</data>
      <data key="DisallowRegister">False</data>
      <data key="NodeType">4</data>
    </node>
    <node id="n51" parse.indegree="1" parse.outdegree="1">
      <data key="VertexId">51</data>
      <data key="NodeUniqueId">56</data>
      <data key="ThroughputCostIfRegistered">16</data>
      <data key="LatencyCostIfRegistered">16</data>
      <data key="RegisterCostIfRegistered">18</data>
      <data key="IsRegistered">False</data>
      <data key="IsInputTerminal">True</data>
      <data key="IsOutputTerminal">False</data>
      <data key="DisallowRegister">False</data>
      <data key="NodeType">4</data>
    </node>
    <node id="n52" parse.indegree="3" parse.outdegree="1">
      <data key="VertexId">52</data>
      <data key="NodeUniqueId">56</data>
      <data key="ThroughputCostIfRegistered">16</data>
      <data key="LatencyCostIfRegistered">16</data>
      <data key="RegisterCostIfRegistered">18</data>
      <data key="IsRegistered">False</data>
      <data key="IsInputTerminal">False</data>
      <data key="IsOutputTerminal">False</data>
      <data key="DisallowRegister">False</data>
      <data key="NodeType">4</data>
    </node>
    <node id="n53" parse.indegree="1" parse.outdegree="1">
      <data key="VertexId">53</data>
      <data key="NodeUniqueId">60</data>
      <data key="ThroughputCostIfRegistered">16</data>
      <data key="LatencyCostIfRegistered">16</data>
      <data key="RegisterCostIfRegistered">16</data>
      <data key="IsRegistered">False</data>
      <data key="IsInputTerminal">True</data>
      <data key="IsOutputTerminal">False</data>
      <data key="DisallowRegister">False</data>
      <data key="NodeType">4</data>
    </node>
    <node id="n54" parse.indegree="1" parse.outdegree="1">
      <data key="VertexId">54</data>
      <data key="NodeUniqueId">60</data>
      <data key="ThroughputCostIfRegistered">16</data>
      <data key="LatencyCostIfRegistered">16</data>
      <data key="RegisterCostIfRegistered">1</data>
      <data key="IsRegistered">False</data>
      <data key="IsInputTerminal">True</data>
      <data key="IsOutputTerminal">False</data>
      <data key="DisallowRegister">False</data>
      <data key="NodeType">4</data>
    </node>
    <node id="n55" parse.indegree="2" parse.outdegree="1">
      <data key="VertexId">55</data>
      <data key="NodeUniqueId">60</data>
      <data key="ThroughputCostIfRegistered">16</data>
      <data key="LatencyCostIfRegistered">16</data>
      <data key="RegisterCostIfRegistered">16</data>
      <data key="IsRegistered">False</data>
      <data key="IsInputTerminal">False</data>
      <data key="IsOutputTerminal">False</data>
      <data key="DisallowRegister">False</data>
      <data key="NodeType">4</data>
    </node>
    <node id="n56" parse.indegree="1" parse.outdegree="1">
      <data key="VertexId">56</data>
      <data key="NodeUniqueId">17</data>
      <data key="ThroughputCostIfRegistered">16</data>
      <data key="LatencyCostIfRegistered">16</data>
      <data key="RegisterCostIfRegistered">17</data>
      <data key="IsRegistered">False</data>
      <data key="IsInputTerminal">True</data>
      <data key="IsOutputTerminal">False</data>
      <data key="DisallowRegister">True</data>
      <data key="NodeType">3</data>
    </node>
    <node id="n57" parse.indegree="1" parse.outdegree="1">
      <data key="VertexId">57</data>
      <data key="NodeUniqueId">21</data>
      <data key="ThroughputCostIfRegistered">16</data>
      <data key="LatencyCostIfRegistered">16</data>
      <data key="RegisterCostIfRegistered">18</data>
      <data key="IsRegistered">False</data>
      <data key="IsInputTerminal">True</data>
      <data key="IsOutputTerminal">False</data>
      <data key="DisallowRegister">True</data>
      <data key="NodeType">3</data>
    </node>
    <node id="n58" parse.indegree="1" parse.outdegree="1">
      <data key="VertexId">58</data>
      <data key="NodeUniqueId">25</data>
      <data key="ThroughputCostIfRegistered">16</data>
      <data key="LatencyCostIfRegistered">16</data>
      <data key="RegisterCostIfRegistered">16</data>
      <data key="IsRegistered">False</data>
      <data key="IsInputTerminal">True</data>
      <data key="IsOutputTerminal">False</data>
      <data key="DisallowRegister">True</data>
      <data key="NodeType">3</data>
    </node>
    <node id="n59" parse.indegree="1" parse.outdegree="1">
      <data key="VertexId">59</data>
      <data key="NodeUniqueId">3</data>
      <data key="ThroughputCostIfRegistered">0</data>
      <data key="LatencyCostIfRegistered">1</data>
      <data key="RegisterCostIfRegistered">16</data>
      <data key="IsRegistered">False</data>
      <data key="IsInputTerminal">True</data>
      <data key="IsOutputTerminal">False</data>
      <data key="DisallowRegister">True</data>
      <data key="NodeType">4</data>
    </node>
    <node id="n60" parse.indegree="1" parse.outdegree="0">
      <data key="VertexId">60</data>
      <data key="NodeUniqueId">3</data>
      <data key="ThroughputCostIfRegistered">0</data>
      <data key="LatencyCostIfRegistered">0</data>
      <data key="RegisterCostIfRegistered">0</data>
      <data key="IsRegistered">True</data>
      <data key="IsInputTerminal">False</data>
      <data key="IsOutputTerminal">False</data>
      <data key="DisallowRegister">False</data>
      <data key="NodeType">4</data>
    </node>
    <edge id="e0" source="n3" target="n4">
      <data key="Delay">0</data>
      <data key="IsFeedback">False</data>
    </edge>
    <edge id="e1" source="n5" target="n6">
      <data key="Delay">0</data>
      <data key="IsFeedback">False</data>
    </edge>
    <edge id="e2" source="n4" target="n5">
      <data key="Delay">0</data>
      <data key="IsFeedback">False</data>
    </edge>
    <edge id="e3" source="n2" target="n8">
      <data key="Delay">0</data>
      <data key="IsFeedback">False</data>
    </edge>
    <edge id="e4" source="n9" target="n10">
      <data key="Delay">267</data>
      <data key="IsFeedback">False</data>
    </edge>
    <edge id="e5" source="n6" target="n9">
      <data key="Delay">0</data>
      <data key="IsFeedback">False</data>
    </edge>
    <edge id="e6" source="n11" target="n10">
      <data key="Delay">0</data>
      <data key="IsFeedback">True</data>
    </edge>
    <edge id="e7" source="n12" target="n13">
      <data key="Delay">267</data>
      <data key="IsFeedback">False</data>
    </edge>
    <edge id="e8" source="n1" target="n12">
      <data key="Delay">0</data>
      <data key="IsFeedback">False</data>
    </edge>
    <edge id="e9" source="n14" target="n13">
      <data key="Delay">0</data>
      <data key="IsFeedback">True</data>
    </edge>
    <edge id="e10" source="n15" target="n16">
      <data key="Delay">267</data>
      <data key="IsFeedback">False</data>
    </edge>
    <edge id="e11" source="n0" target="n15">
      <data key="Delay">0</data>
      <data key="IsFeedback">False</data>
    </edge>
    <edge id="e12" source="n17" target="n16">
      <data key="Delay">0</data>
      <data key="IsFeedback">True</data>
    </edge>
    <edge id="e13" source="n20" target="n21">
      <data key="Delay">0</data>
      <data key="IsFeedback">False</data>
    </edge>
    <edge id="e14" source="n16" target="n20">
      <data key="Delay">0</data>
      <data key="IsFeedback">False</data>
    </edge>
    <edge id="e15" source="n22" target="n24">
      <data key="Delay">0</data>
      <data key="IsFeedback">False</data>
    </edge>
    <edge id="e16" source="n22" target="n25">
      <data key="Delay">0</data>
      <data key="IsFeedback">False</data>
    </edge>
    <edge id="e17" source="n23" target="n24">
      <data key="Delay">0</data>
      <data key="IsFeedback">False</data>
    </edge>
    <edge id="e18" source="n23" target="n25">
      <data key="Delay">0</data>
      <data key="IsFeedback">False</data>
    </edge>
    <edge id="e19" source="n10" target="n22">
      <data key="Delay">0</data>
      <data key="IsFeedback">False</data>
    </edge>
    <edge id="e20" source="n19" target="n23">
      <data key="Delay">0</data>
      <data key="IsFeedback">False</data>
    </edge>
    <edge id="e21" source="n26" target="n28">
      <data key="Delay">0</data>
      <data key="IsFeedback">False</data>
    </edge>
    <edge id="e22" source="n27" target="n28">
      <data key="Delay">0</data>
      <data key="IsFeedback">False</data>
    </edge>
    <edge id="e23" source="n21" target="n26">
      <data key="Delay">0</data>
      <data key="IsFeedback">False</data>
    </edge>
    <edge id="e24" source="n19" target="n27">
      <data key="Delay">0</data>
      <data key="IsFeedback">False</data>
    </edge>
    <edge id="e25" source="n29" target="n31">
      <data key="Delay">0</data>
      <data key="IsFeedback">False</data>
    </edge>
    <edge id="e26" source="n29" target="n32">
      <data key="Delay">0</data>
      <data key="IsFeedback">False</data>
    </edge>
    <edge id="e27" source="n30" target="n31">
      <data key="Delay">0</data>
      <data key="IsFeedback">False</data>
    </edge>
    <edge id="e28" source="n30" target="n32">
      <data key="Delay">0</data>
      <data key="IsFeedback">False</data>
    </edge>
    <edge id="e29" source="n24" target="n29">
      <data key="Delay">0</data>
      <data key="IsFeedback">False</data>
    </edge>
    <edge id="e30" source="n19" target="n30">
      <data key="Delay">0</data>
      <data key="IsFeedback">False</data>
    </edge>
    <edge id="e31" source="n33" target="n35">
      <data key="Delay">0</data>
      <data key="IsFeedback">False</data>
    </edge>
    <edge id="e32" source="n34" target="n35">
      <data key="Delay">0</data>
      <data key="IsFeedback">False</data>
    </edge>
    <edge id="e33" source="n13" target="n33">
      <data key="Delay">0</data>
      <data key="IsFeedback">False</data>
    </edge>
    <edge id="e34" source="n25" target="n34">
      <data key="Delay">0</data>
      <data key="IsFeedback">False</data>
    </edge>
    <edge id="e35" source="n36" target="n38">
      <data key="Delay">0</data>
      <data key="IsFeedback">False</data>
    </edge>
    <edge id="e36" source="n37" target="n38">
      <data key="Delay">0</data>
      <data key="IsFeedback">False</data>
    </edge>
    <edge id="e37" source="n28" target="n36">
      <data key="Delay">0</data>
      <data key="IsFeedback">False</data>
    </edge>
    <edge id="e38" source="n18" target="n37">
      <data key="Delay">0</data>
      <data key="IsFeedback">False</data>
    </edge>
    <edge id="e39" source="n39" target="n41">
      <data key="Delay">0</data>
      <data key="IsFeedback">False</data>
    </edge>
    <edge id="e40" source="n40" target="n41">
      <data key="Delay">0</data>
      <data key="IsFeedback">False</data>
    </edge>
    <edge id="e41" source="n35" target="n39">
      <data key="Delay">0</data>
      <data key="IsFeedback">False</data>
    </edge>
    <edge id="e42" source="n32" target="n40">
      <data key="Delay">0</data>
      <data key="IsFeedback">False</data>
    </edge>
    <edge id="e43" source="n42" target="n44">
      <data key="Delay">927</data>
      <data key="IsFeedback">False</data>
    </edge>
    <edge id="e44" source="n43" target="n44">
      <data key="Delay">927</data>
      <data key="IsFeedback">False</data>
    </edge>
    <edge id="e45" source="n38" target="n42">
      <data key="Delay">0</data>
      <data key="IsFeedback">False</data>
    </edge>
    <edge id="e46" source="n41" target="n43">
      <data key="Delay">0</data>
      <data key="IsFeedback">False</data>
    </edge>
    <edge id="e47" source="n45" target="n46">
      <data key="Delay">0</data>
      <data key="IsFeedback">False</data>
    </edge>
    <edge id="e48" source="n44" target="n45">
      <data key="Delay">0</data>
      <data key="IsFeedback">False</data>
    </edge>
    <edge id="e49" source="n47" target="n48">
      <data key="Delay">544</data>
      <data key="IsFeedback">False</data>
    </edge>
    <edge id="e50" source="n44" target="n47">
      <data key="Delay">0</data>
      <data key="IsFeedback">False</data>
    </edge>
    <edge id="e51" source="n49" target="n52">
      <data key="Delay">318</data>
      <data key="IsFeedback">False</data>
    </edge>
    <edge id="e52" source="n50" target="n52">
      <data key="Delay">318</data>
      <data key="IsFeedback">False</data>
    </edge>
    <edge id="e53" source="n51" target="n52">
      <data key="Delay">318</data>
      <data key="IsFeedback">False</data>
    </edge>
    <edge id="e54" source="n41" target="n49">
      <data key="Delay">0</data>
      <data key="IsFeedback">False</data>
    </edge>
    <edge id="e55" source="n48" target="n50">
      <data key="Delay">0</data>
      <data key="IsFeedback">False</data>
    </edge>
    <edge id="e56" source="n46" target="n51">
      <data key="Delay">0</data>
      <data key="IsFeedback">False</data>
    </edge>
    <edge id="e57" source="n53" target="n55">
      <data key="Delay">0</data>
      <data key="IsFeedback">False</data>
    </edge>
    <edge id="e58" source="n54" target="n55">
      <data key="Delay">0</data>
      <data key="IsFeedback">False</data>
    </edge>
    <edge id="e59" source="n16" target="n53">
      <data key="Delay">0</data>
      <data key="IsFeedback">False</data>
    </edge>
    <edge id="e60" source="n48" target="n54">
      <data key="Delay">0</data>
      <data key="IsFeedback">False</data>
    </edge>
    <edge id="e61" source="n56" target="n11">
      <data key="Delay">267</data>
      <data key="IsFeedback">False</data>
    </edge>
    <edge id="e62" source="n31" target="n56">
      <data key="Delay">0</data>
      <data key="IsFeedback">False</data>
    </edge>
    <edge id="e63" source="n57" target="n14">
      <data key="Delay">267</data>
      <data key="IsFeedback">False</data>
    </edge>
    <edge id="e64" source="n52" target="n57">
      <data key="Delay">0</data>
      <data key="IsFeedback">False</data>
    </edge>
    <edge id="e65" source="n58" target="n17">
      <data key="Delay">267</data>
      <data key="IsFeedback">False</data>
    </edge>
    <edge id="e66" source="n55" target="n58">
      <data key="Delay">0</data>
      <data key="IsFeedback">False</data>
    </edge>
    <edge id="e67" source="n59" target="n60">
      <data key="Delay">0</data>
      <data key="IsFeedback">False</data>
    </edge>
    <edge id="e68" source="n17" target="n59">
      <data key="Delay">0</data>
      <data key="IsFeedback">False</data>
    </edge>
  </graph>
</graphml>
